<?xml version="1.0" encoding="utf-8"?>
<!-- Generator: Adobe Illustrator 22.1.0, SVG Export Plug-In . SVG Version: 6.00 Build 0)  -->
<svg version="1.1" id="Layer_1" xmlns="http://www.w3.org/2000/svg" xmlns:xlink="http://www.w3.org/1999/xlink" x="0px" y="0px"
	 viewBox="0 0 382.7 382.7" style="enable-background:new 0 0 382.7 382.7;" xml:space="preserve">
<style type="text/css">
	.st0{enable-background:new    ;}
	.st1{fill:#3A4045;}
	.st2{fill:#2B97D3;}
</style>
<g class="st0">
	<path class="st1" d="M60.2,285.6h5.8c3,0,5.1,0.6,6.4,1.8c1.3,1.2,2,3.2,2,5.8c0,3.7-1.2,6-3.6,6.8l4.2,14.5h-3.9L67.4,301h-3.1
		v13.6h-4V285.6z M65.8,298.1c1.8,0,3-0.4,3.7-1.1c0.7-0.7,1.1-1.9,1.1-3.8c0-1.2-0.1-2.1-0.4-2.9c-0.2-0.7-0.7-1.2-1.4-1.5
		c-0.7-0.4-1.7-0.5-2.9-0.5h-1.8v9.5h1.7V298.1z"/>
	<path class="st1" d="M78.8,285.6H90v3h-7.1v9.5h5.8v2.9h-5.8v10.6h7.3v2.9H78.8V285.6z"/>
	<path class="st1" d="M93.3,285.6h4v26.1h7.4v2.9H93.3V285.6z"/>
	<path class="st1" d="M107.8,285.6h3.9v28.9h-3.9V285.6z"/>
	<path class="st1" d="M117.5,312.4c-1.2-1.7-1.8-4.2-1.8-7.4v-9.6c0-2.3,0.2-4,0.7-5.5c0.5-1.4,1.3-2.5,2.4-3.3
		c1.1-0.7,2.7-1.2,4.6-1.2c2.6,0,4.6,0.7,5.7,2c1.2,1.3,1.8,3.5,1.8,6.4v1.1h-3.8v-1c0-1.4-0.1-2.5-0.2-3.2
		c-0.1-0.7-0.5-1.3-1.1-1.7c-0.6-0.4-1.3-0.6-2.4-0.6c-1.1,0-1.9,0.2-2.5,0.7s-1,1.2-1.1,2c-0.1,0.8-0.2,2-0.2,3.5v10.7
		c0,2.3,0.2,3.8,0.8,4.8s1.5,1.4,3.1,1.4s2.5-0.5,3.1-1.5c0.6-1.1,0.8-2.7,0.8-5v-2h-3.7v-2.9h7.4v14.3h-2.4l-0.4-3.3
		c-1,2.5-2.6,3.7-5.1,3.7C120.6,314.9,118.7,314.1,117.5,312.4z"/>
	<path class="st1" d="M135.7,285.6h3.9v28.9h-3.9V285.6z"/>
	<path class="st1" d="M145.6,312.5c-1.2-1.7-1.8-3.9-1.8-7v-11c0-3,0.6-5.2,1.9-6.8c1.2-1.5,3.2-2.3,6.1-2.3c2.9,0,4.9,0.8,6.1,2.4
		s1.8,3.8,1.8,6.8v11c0,3-0.6,5.4-1.9,6.9c-1.2,1.7-3.2,2.4-6.1,2.4S146.8,314.1,145.6,312.5z M154.8,310.4c0.5-0.8,0.8-2.3,0.8-4
		v-12.7c0-1.8-0.2-3.1-0.8-3.9c-0.5-0.8-1.5-1.3-3.1-1.3s-2.5,0.5-3.1,1.3c-0.5,0.8-0.8,2.1-0.8,3.9v12.9c0,1.8,0.2,3.1,0.8,4
		c0.5,0.8,1.5,1.3,3.1,1.3C153.2,311.7,154.2,311.3,154.8,310.4z"/>
	<path class="st1" d="M166.3,313.7c-1.2-0.8-1.9-1.9-2.4-3.3c-0.5-1.4-0.6-3.3-0.6-5.5v-19.2h3.8v19.4c0,2.1,0.2,3.8,0.7,5
		s1.5,1.7,3.1,1.7s2.6-0.6,3.1-1.7c0.5-1.2,0.7-2.9,0.7-5v-19.4h3.8v19.2c0,2.1-0.2,4-0.6,5.5c-0.5,1.4-1.2,2.6-2.4,3.3
		c-1.1,0.8-2.7,1.2-4.8,1.2C169.1,314.9,167.4,314.5,166.3,313.7z"/>
	<path class="st1" d="M184.2,312.6c-1.3-1.5-2-3.6-2.1-6.2l3.6-1c0.1,1.9,0.5,3.3,1.1,4.5c0.6,1.2,1.7,1.7,3,1.7
		c1.1,0,1.8-0.2,2.4-0.8c0.6-0.6,0.8-1.4,0.8-2.5c0-1.2-0.2-2.1-0.7-3c-0.5-0.8-1.3-1.7-2.4-2.6l-4.9-4.3c-1-0.8-1.7-1.8-2.1-2.7
		c-0.5-1-0.7-2.1-0.7-3.6c0-2.1,0.6-3.8,1.8-4.9c1.2-1.2,2.9-1.8,5-1.8c2.3,0,4,0.6,5.2,1.8c1.2,1.2,1.9,3.1,2.1,5.6l-3.5,1
		c-0.1-1.7-0.5-3-1-3.9c-0.6-1-1.5-1.4-2.9-1.4c-1.1,0-1.8,0.2-2.4,0.8c-0.6,0.6-0.8,1.3-0.8,2.4c0,0.8,0.1,1.5,0.5,2.1
		c0.4,0.6,0.7,1.2,1.4,1.8l4.9,4.3c1.3,1.1,2.3,2.4,3,3.7c0.7,1.3,1.1,2.7,1.1,4.5c0,2.1-0.6,3.8-1.9,5c-1.3,1.2-3,1.9-5,1.9
		C187.4,314.9,185.5,314.2,184.2,312.6z"/>
	<path class="st1" d="M211.2,288.6h-4.9v-3h13.7v3h-4.8v26h-4V288.6z"/>
	<path class="st1" d="M224.1,312.5c-1.2-1.7-1.8-3.9-1.8-7v-11c0-3,0.6-5.2,1.9-6.8c1.2-1.5,3.2-2.3,6.1-2.3c2.9,0,4.9,0.8,6.1,2.4
		c1.2,1.5,1.8,3.8,1.8,6.8v11c0,3-0.6,5.4-1.9,6.9c-1.2,1.7-3.2,2.4-6.1,2.4S225.3,314.1,224.1,312.5z M233.3,310.4
		c0.5-0.8,0.8-2.3,0.8-4v-12.7c0-1.8-0.2-3.1-0.8-3.9c-0.5-0.8-1.5-1.3-3.1-1.3c-1.5,0-2.5,0.5-3.1,1.3c-0.5,0.8-0.8,2.1-0.8,3.9
		v12.9c0,1.8,0.2,3.1,0.8,4c0.5,0.8,1.5,1.3,3.1,1.3C231.7,311.7,232.7,311.3,233.3,310.4z"/>
	<path class="st1" d="M244.8,313.7c-1.2-0.8-1.9-1.9-2.4-3.3c-0.5-1.4-0.6-3.3-0.6-5.5v-19.2h3.8v19.4c0,2.1,0.2,3.8,0.7,5
		c0.5,1.2,1.5,1.7,3.1,1.7s2.6-0.6,3.1-1.7c0.5-1.2,0.7-2.9,0.7-5v-19.4h3.8v19.2c0,2.1-0.2,4-0.6,5.5c-0.5,1.4-1.2,2.6-2.4,3.3
		c-1.1,0.8-2.7,1.2-4.8,1.2C247.6,314.9,245.9,314.5,244.8,313.7z"/>
	<path class="st1" d="M261.5,285.6h5.8c3,0,5.1,0.6,6.4,1.8c1.3,1.2,2,3.2,2,5.8c0,3.7-1.2,6-3.6,6.8l4.2,14.5h-3.9l-3.8-13.6h-3.1
		v13.6h-4V285.6L261.5,285.6z M267.1,298.1c1.8,0,3-0.4,3.7-1.1c0.7-0.7,1.1-1.9,1.1-3.8c0-1.2-0.1-2.1-0.4-2.9
		c-0.2-0.7-0.7-1.2-1.4-1.5c-0.7-0.4-1.7-0.5-2.9-0.5h-1.8v9.5h1.7V298.1z"/>
	<path class="st1" d="M280.2,285.6h3.9v28.9h-3.9V285.6z"/>
	<path class="st1" d="M290.2,312.6c-1.3-1.5-2-3.6-2.1-6.2l3.6-1c0.1,1.9,0.5,3.3,1.1,4.5c0.6,1.2,1.7,1.7,3,1.7
		c1.1,0,1.8-0.2,2.4-0.8c0.6-0.6,0.8-1.4,0.8-2.5c0-1.2-0.2-2.1-0.7-3c-0.5-0.8-1.3-1.7-2.4-2.6l-4.9-4.3c-1-0.8-1.7-1.8-2.1-2.7
		c-0.5-1-0.7-2.1-0.7-3.6c0-2.1,0.6-3.8,1.8-4.9c1.2-1.2,2.9-1.8,5-1.8c2.3,0,4,0.6,5.2,1.8c1.2,1.2,1.9,3.1,2.1,5.6l-3.5,1
		c-0.1-1.7-0.5-3-1-3.9c-0.6-1-1.5-1.4-2.9-1.4c-1.1,0-1.8,0.2-2.4,0.8c-0.6,0.6-0.8,1.3-0.8,2.4c0,0.8,0.1,1.5,0.5,2.1
		c0.4,0.6,0.7,1.2,1.4,1.8l4.9,4.3c1.3,1.1,2.3,2.4,3,3.7c0.7,1.3,1.1,2.7,1.1,4.5c0,2.1-0.6,3.8-1.9,5c-1.3,1.2-3,1.9-5,1.9
		C293.3,314.9,291.4,314.2,290.2,312.6z"/>
	<path class="st1" d="M306.3,285.6h3.9l5.1,23.5l5.1-23.5h3.9l0.6,28.9h-3.2l-0.4-21l-4.9,21h-2.3l-4.9-21l-0.4,21h-3.3L306.3,285.6
		z"/>
</g>
<path class="st2" d="M241.9,209.3c-23.8,23.8-62.3,23.8-86.1,0s-23.8-62.3,0-86.1c6.8-6.8,14.9-11.7,23.5-14.6
	c-12.2,2.5-23.8,8.4-33.2,17.9c-25.6,25.6-25.6,67,0,92.6s67,25.6,92.6,0c9.4-9.4,15.4-21,17.9-33.2
	C253.6,194.4,248.7,202.5,241.9,209.3z"/>
<polygon class="st1" points="196.2,117 203.8,117 203.8,142.7 226.1,142.7 226.1,150.3 203.8,150.3 203.8,205.4 196.2,205.4 
	196.2,150.3 173.8,150.3 173.8,142.7 196.2,142.7 "/>
<g id="Layer_2_1_">
</g>
</svg>
