<?xml version="1.0" encoding="utf-8"?>
<!-- Generator: Adobe Illustrator 22.1.0, SVG Export Plug-In . SVG Version: 6.00 Build 0)  -->
<svg version="1.1" id="Layer_1" xmlns="http://www.w3.org/2000/svg" xmlns:xlink="http://www.w3.org/1999/xlink" x="0px" y="0px"
	 viewBox="0 0 60 60" style="enable-background:new 0 0 60 60;" xml:space="preserve">
<style type="text/css">
	.st0{fill-rule:evenodd;clip-rule:evenodd;fill:#FFC600;}
</style>
<path class="st0" d="M32.9,18.6L21.5,29.9c-0.1,0.1-0.1,0.3,0,0.5l11.4,11.3c0.1,0.1,0.3,0.1,0.4,0l2.5-2.5L27,30.4
	c-0.1-0.1-0.1-0.3,0-0.5l8.9-8.8l-2.5-2.5C33.2,18.5,33,18.5,32.9,18.6L32.9,18.6z M29.6,2.7c-7.6,0-14.4,3.1-19.4,8.1
	c-5,5-8.1,11.8-8.1,19.4c0,7.6,3.1,14.5,8.1,19.5c5,5,11.8,8.1,19.4,8.1c7.6,0,14.5-3.1,19.5-8.1c5-5,8.1-11.9,8.1-19.5
	c0-7.6-3.1-14.4-8.1-19.4C44.1,5.8,37.3,2.7,29.6,2.7L29.6,2.7z M14.4,14.9c3.9-3.9,9.3-6.3,15.3-6.3c6,0,11.4,2.4,15.3,6.3
	c3.9,3.9,6.3,9.3,6.3,15.3c0,6-2.4,11.4-6.3,15.3c-3.9,3.9-9.3,6.3-15.3,6.3c-6,0-11.4-2.4-15.3-6.3c-3.9-3.9-6.3-9.3-6.3-15.3
	C8.1,24.2,10.5,18.8,14.4,14.9L14.4,14.9z"/>
</svg>
