<?xml version="1.0" encoding="utf-8"?>
<!-- Generator: Adobe Illustrator 22.1.0, SVG Export Plug-In . SVG Version: 6.00 Build 0)  -->
<svg version="1.1" id="Layer_1" xmlns="http://www.w3.org/2000/svg" xmlns:xlink="http://www.w3.org/1999/xlink" x="0px" y="0px"
	 viewBox="0 0 118 117" style="enable-background:new 0 0 118 117;" xml:space="preserve">
<style type="text/css">
	.st0{fill-rule:evenodd;clip-rule:evenodd;fill:none;stroke:#999999;stroke-width:2;stroke-miterlimit:10;}
	.st1{fill-rule:evenodd;clip-rule:evenodd;fill:#999999;}
</style>
<path class="st0" d="M59.5,113.3c30.4,0,55.2-24.8,55.2-55.3c0-30.4-24.8-55.2-55.2-55.2C29.1,2.8,4.3,27.6,4.3,58.1
	C4.3,88.5,29.1,113.3,59.5,113.3L59.5,113.3z"/>
<path class="st1" d="M71.8,22.7l12,6.9c0.8,0.4,1,1.4,0.6,2.2L58.4,76.7c-0.1,0.2-0.3,0.4-0.5,0.5l-7.2,5.6l-7.3,5.7
	c-0.7,0.6-1.7,0.4-2.3-0.3c-0.3-0.4-0.4-0.8-0.3-1.2l0,0l1.3-9.1l1.3-9.1c0.1-0.2,0.1-0.4,0.2-0.6l0,0l25.9-44.9
	C70,22.6,71,22.3,71.8,22.7L71.8,22.7z M71.7,27.1l-2.1,3.7l8.2,4.7l2.1-3.7L71.7,27.1z M68.5,32.7l-19.6,34l0,0l-0.5,1l8.2,4.7
	l20.2-35L68.5,32.7z M47.2,69.7L46,77.9l2.8,1.6l6.5-5.1L47.2,69.7z"/>
</svg>
