<?xml version="1.0" encoding="utf-8"?>
<!-- Generator: Adobe Illustrator 22.1.0, SVG Export Plug-In . SVG Version: 6.00 Build 0)  -->
<svg version="1.1" id="Layer_1" xmlns="http://www.w3.org/2000/svg" xmlns:xlink="http://www.w3.org/1999/xlink" x="0px" y="0px"
	 viewBox="0 0 23.7 23.7" style="enable-background:new 0 0 23.7 23.7;" xml:space="preserve">
<style type="text/css">
	.st0{fill:#545454;}
</style>
<path class="st0" d="M19.9,8.3h-4.5V4.5c0-1-0.8-1.8-1.7-1.8H3.4c-0.9,0-1.7,0.8-1.7,1.8v6.7c0,1,0.8,1.8,1.7,1.8h1l1.3,1.8
	C5.7,14.9,5.9,15,6,15s0.3-0.1,0.4-0.2L7.7,13h0.2v3.9c0,1,0.8,1.8,1.7,1.8h6.1l1.3,1.8c0.1,0.1,0.2,0.2,0.4,0.2
	c0.1,0,0.3-0.1,0.4-0.2l1.3-1.8h1c0.9,0,1.7-0.8,1.7-1.8v-6.7C21.7,9.2,20.9,8.3,19.9,8.3z M7.4,12c-0.1,0-0.3,0.1-0.4,0.2L6,13.7
	l-1.1-1.5C4.9,12.1,4.7,12,4.6,12H3.3c-0.5,0-0.8-0.4-0.8-0.9V4.5c0-0.5,0.4-0.9,0.8-0.9h10.4c0.5,0,0.8,0.4,0.8,0.9v4.3v2.3
	c0,0.5-0.4,0.9-0.8,0.9H8.3H7.4L7.4,12z M20.8,16.8c0,0.5-0.4,0.9-0.8,0.9h-1.3c-0.1,0-0.3,0.1-0.4,0.2l-1.1,1.5l-1.1-1.5
	c-0.1-0.1-0.2-0.2-0.4-0.2H9.6c-0.5,0-0.8-0.4-0.8-0.9V13h5c0.3,0,0.7-0.1,0.9-0.3h3.4c0.2,0,0.4-0.2,0.4-0.5c0-0.3-0.2-0.5-0.4-0.5
	h-2.6c0.1-0.2,0.1-0.4,0.1-0.6V9.3H20c0.5,0,0.8,0.4,0.8,0.9L20.8,16.8L20.8,16.8z M18.5,14.9c0,0.3-0.2,0.5-0.4,0.5h-6.5
	c-0.2,0-0.4-0.2-0.4-0.5c0-0.3,0.2-0.5,0.4-0.5H18C18.3,14.4,18.5,14.6,18.5,14.9z M11.8,9.7H5.3C5,9.7,4.8,9.5,4.8,9.2
	C4.8,9,5,8.8,5.3,8.8h6.5c0.2,0,0.4,0.2,0.4,0.5C12.3,9.5,12,9.7,11.8,9.7z M4.8,6.5c0-0.3,0.2-0.5,0.4-0.5h3.9
	c0.2,0,0.4,0.2,0.4,0.5C9.6,6.8,9.4,7,9.2,7H5.3C5,7,4.8,6.8,4.8,6.5z"/>
</svg>
