<?xml version="1.0" encoding="utf-8"?>
<!-- Generator: Adobe Illustrator 22.1.0, SVG Export Plug-In . SVG Version: 6.00 Build 0)  -->
<svg version="1.1" id="Layer_1" xmlns="http://www.w3.org/2000/svg" xmlns:xlink="http://www.w3.org/1999/xlink" x="0px" y="0px"
	 viewBox="0 0 48 48" style="enable-background:new 0 0 48 48;" xml:space="preserve">
<style type="text/css">
	.st0{fill:#EF3C39;}
	.st1{fill:#FFFFFF;}
</style>
<g>
	<circle class="st0" cx="24.6" cy="23.4" r="20"/>
	<g>
		<polygon class="st1" points="35,16.8 31.2,13 24.6,19.6 18,13 14.3,16.8 20.9,23.4 14.3,30 18,33.8 24.6,27.2 31.2,33.8 35,30 
			28.4,23.4 		"/>
	</g>
</g>
</svg>
