<?xml version="1.0" encoding="utf-8"?>
<!-- Generator: Adobe Illustrator 22.1.0, SVG Export Plug-In . SVG Version: 6.00 Build 0)  -->
<svg version="1.1" id="Layer_1" xmlns="http://www.w3.org/2000/svg" xmlns:xlink="http://www.w3.org/1999/xlink" x="0px" y="0px"
	 viewBox="0 0 96 96" style="enable-background:new 0 0 96 96;" xml:space="preserve">
<style type="text/css">
	.st0{fill:none;stroke:#403E3E;stroke-width:2;stroke-miterlimit:10;}
	.st1{fill:none;stroke:#43D3E8;stroke-width:2;stroke-miterlimit:10;}
	.st2{fill:none;stroke:#F96232;stroke-width:2;stroke-miterlimit:10;}
</style>
<g>
	<g>
		<polyline class="st0" points="42.6,59.5 71.8,59.5 71.8,17.7 13.4,17.7 13.4,49.8 		"/>
		<g>
			<polyline class="st1" points="66.3,53.9 46.8,34.5 38.4,42.8 			"/>
			<polyline class="st1" points="42.6,47 35.6,40 25.9,49.8 			"/>
			<circle class="st1" cx="35.6" cy="31.7" r="3.5"/>
		</g>
		<polyline class="st1" points="18.9,49.8 18.9,23.3 66.3,23.3 66.3,53.9 42.6,53.9 		"/>
	</g>
	<g>
		<rect x="5" y="53.9" class="st2" width="33.4" height="25.1"/>
		<polygon class="st2" points="17.5,62.3 18.9,62.3 25.9,66.5 18.9,70.6 17.5,70.6 		"/>
	</g>
	<g>
		<g>
			<line class="st0" x1="76" y1="37.2" x2="87.1" y2="37.2"/>
			<line class="st0" x1="76" y1="42.8" x2="87.1" y2="42.8"/>
			<line class="st0" x1="76" y1="48.4" x2="87.1" y2="48.4"/>
			<line class="st0" x1="76" y1="53.9" x2="87.1" y2="53.9"/>
			<line class="st0" x1="76" y1="59.5" x2="87.1" y2="59.5"/>
			<line class="st0" x1="50.9" y1="65.1" x2="87.1" y2="65.1"/>
			<line class="st0" x1="50.9" y1="70.6" x2="87.1" y2="70.6"/>
			<line class="st0" x1="50.9" y1="76.2" x2="87.1" y2="76.2"/>
			<line class="st0" x1="50.9" y1="81.8" x2="73.2" y2="81.8"/>
		</g>
		<polyline class="st1" points="76,31.7 91.3,31.7 91.3,87.4 46.8,87.4 46.8,63.7 		"/>
	</g>
	<line class="st0" x1="64.9" y1="8" x2="67.6" y2="8"/>
	<g>
		<rect x="77.4" y="9.4" class="st2" width="11.1" height="11.1"/>
		<line class="st2" x1="81.6" y1="15" x2="84.4" y2="15"/>
	</g>
	<g>
		<polyline class="st0" points="7.8,23.3 7.8,12.2 18.9,12.2 		"/>
		<line class="st0" x1="21.7" y1="12.2" x2="24.5" y2="12.2"/>
		<line class="st0" x1="27.3" y1="12.2" x2="30.1" y2="12.2"/>
	</g>
	<g>
		<line class="st0" x1="31.5" y1="87.4" x2="34.2" y2="87.4"/>
		<line class="st0" x1="25.9" y1="87.4" x2="28.7" y2="87.4"/>
		<line class="st0" x1="37" y1="87.4" x2="39.8" y2="87.4"/>
	</g>
</g>
</svg>
