<?xml version="1.0" encoding="utf-8"?>
<!-- Generator: Adobe Illustrator 22.1.0, SVG Export Plug-In . SVG Version: 6.00 Build 0)  -->
<svg version="1.1" id="Layer_1" xmlns="http://www.w3.org/2000/svg" xmlns:xlink="http://www.w3.org/1999/xlink" x="0px" y="0px"
	 viewBox="0 0 80.3 76.4" style="enable-background:new 0 0 80.3 76.4;" xml:space="preserve">
<style type="text/css">
	.st0{fill:#231F20;stroke:#000000;stroke-width:0.25;stroke-miterlimit:10;}
	.st1{fill:#FF9100;}
</style>
<g>
	<g>
		<path class="st0" d="M57.2,29.8L39,20.2l-17.6,9.6L57.2,29.8L57.2,29.8z M19.6,49.2v1.4h39.5v-1.4H19.6L19.6,49.2z M27.1,45.3h1.3
			V33.7h-1.3V45.3L27.1,45.3z M33.6,45.3V33.7h-4v11.6L33.6,45.3L33.6,45.3z M34.8,45.3h1.3V33.7h-1.3V45.3L34.8,45.3z M41.3,45.3
			V33.7h-4v11.6L41.3,45.3L41.3,45.3z M42.6,45.3h1.3V33.7h-1.3V45.3L42.6,45.3z M52.9,33.7v11.6H57c0.4,0,0.6,0.3,0.6,0.6v2h2.1
			c0.4,0,0.6,0.3,0.6,0.6v2.6c0,0.4-0.3,0.6-0.6,0.6H19c-0.4,0-0.6-0.3-0.6-0.6v-2.6c0-0.4,0.3-0.6,0.6-0.6h2.1v-2
			c0-0.4,0.3-0.6,0.6-0.6h4.1V33.7h-2.9c-0.4,0-0.6-0.3-0.6-0.6v-2H19c-0.3,0-0.5-0.2-0.6-0.5s0.1-0.6,0.3-0.7l20-10.9
			c0.2-0.1,0.4-0.1,0.6,0l20.8,10.9c0.3,0.1,0.4,0.4,0.3,0.7c-0.1,0.3-0.3,0.5-0.6,0.5h-3.3v2c0,0.4-0.3,0.6-0.6,0.6H52.9L52.9,33.7
			z M55.2,32.4V31H23.5v1.4H55.2L55.2,32.4z M49.1,45.3V33.7h-4v11.6L49.1,45.3L49.1,45.3z M22.4,46.6V48h34v-1.4H22.4L22.4,46.6z
			 M50.4,45.3h1.3V33.7h-1.3V45.3L50.4,45.3z"/>
		<rect x="42.3" y="33.4" class="st1" width="1.9" height="12"/>
		<rect x="34.5" y="33.4" class="st1" width="1.9" height="12"/>
		<rect x="26.6" y="33.4" class="st1" width="1.9" height="12"/>
	</g>
	<rect x="50.1" y="33.5" class="st1" width="1.9" height="12"/>
</g>
</svg>
