<?xml version="1.0" encoding="utf-8"?>
<!-- Generator: Adobe Illustrator 22.1.0, SVG Export Plug-In . SVG Version: 6.00 Build 0)  -->
<svg version="1.1" id="Layer_1" xmlns="http://www.w3.org/2000/svg" xmlns:xlink="http://www.w3.org/1999/xlink" x="0px" y="0px"
	 viewBox="0 0 400 400" style="enable-background:new 0 0 400 400;" xml:space="preserve">
<style type="text/css">
	.st0{fill:#FFFFFF;}
	.st1{fill-rule:evenodd;clip-rule:evenodd;fill:#B6B6B6;}
</style>
<circle class="st0" cx="198.7" cy="200.4" r="193"/>
<g>
	<path class="st1" d="M246.9,178.3l-56.2,97.2c-0.7,1.2-1.6,2-2.8,2.7l-26.6,16.4l-26.9,16.7c-3.4,2.1-7.6,1.1-9.7-2.3
		c-0.8-1.3-1.1-2.6-1-3.9l1-31.6l1-31.8c0-1.2,0.3-2.3,0.9-3.3l0,0l56.1-97.2l12.3,7.1l-49,84.9l0,0l-6.2,10.7l-1,32.4l13,7.5
		l27.6-17.1l55.2-95.6L246.9,178.3z"/>
	<path class="st1" d="M237.3,91.2l25.7,14.8c5.4,3.1,8.9,8.3,10.1,14.1c1.3,5.6,0.5,11.9-2.7,17.4l-3.1,5.5l-64.1-37.1l3.1-5.4
		c3.2-5.5,8.2-9.3,13.7-11.1C225.6,87.7,231.9,88.1,237.3,91.2L237.3,91.2z"/>
	<polygon class="st1" points="260.5,154.7 253.6,166.5 189.5,129.5 196.4,117.7 	"/>
	<path class="st1" d="M222.3,164.1l-15-8.6l-41.9,72.6h0.1l-11.4,19.6c-0.1,0.2-0.1,0.3-0.2,0.3c-1.5,2.5,0.7,6.5,4.8,8.9
		c4.2,2.4,8.7,2.3,10.1-0.2l0,0v-0.1L222.3,164.1z"/>
</g>
</svg>
