<?xml version="1.0" encoding="utf-8"?>
<!-- Generator: Adobe Illustrator 22.1.0, SVG Export Plug-In . SVG Version: 6.00 Build 0)  -->
<svg version="1.1" id="Layer_1" xmlns="http://www.w3.org/2000/svg" xmlns:xlink="http://www.w3.org/1999/xlink" x="0px" y="0px"
	 viewBox="0 0 15 15" style="enable-background:new 0 0 15 15;" xml:space="preserve">
<style type="text/css">
	.st0{fill:#FFFFFF;}
</style>
<g>
	<path class="st0" d="M2.8,6.5C2.8,6.5,2.8,6.5,2.8,6.5C2.8,6.5,2.8,6.5,2.8,6.5C2.8,6.5,2.7,6.6,2.8,6.5C2.7,6.6,2.8,6.5,2.8,6.5z"
		/>
	<path class="st0" d="M3.9,2.6C3.9,2.6,4,2.6,3.9,2.6C4,2.6,3.9,2.6,3.9,2.6C3.9,2.6,3.9,2.6,3.9,2.6z"/>
	<path class="st0" d="M3.8,2.7C3.8,2.7,3.8,2.6,3.8,2.7C3.8,2.6,3.8,2.6,3.8,2.7C3.8,2.6,3.8,2.7,3.8,2.7z"/>
	<path class="st0" d="M4.9,1.9C4.9,1.9,4.9,1.8,4.9,1.9C4.9,1.8,4.9,1.8,4.9,1.9C4.9,1.9,4.9,1.9,4.9,1.9z"/>
	<path class="st0" d="M5.4,1.5C5.4,1.5,5.4,1.5,5.4,1.5C5.4,1.5,5.4,1.5,5.4,1.5C5.4,1.5,5.5,1.5,5.4,1.5C5.5,1.5,5.4,1.5,5.4,1.5z"
		/>
	<path class="st0" d="M4.1,7.7C4.1,7.7,4,7.8,4.1,7.7C4,7.8,4.1,7.7,4.1,7.7C4.1,7.7,4.1,7.7,4.1,7.7C4.1,7.7,4.1,7.7,4.1,7.7z"/>
	<path class="st0" d="M7.4,0.3c-4,0-7.2,3.3-7.2,7.4c0,4,3.3,7.2,7.4,7.2c4,0,7.2-3.3,7.2-7.4C14.7,3.5,11.4,0.3,7.4,0.3z M12.5,4.3
		L12.5,4.3l0.1-0.1l0.1,0l0,0.1L12.5,4.3l0.1,0.2l0,0l0,0.1l0.1,0.1l0.1,0l0,0.1l0,0.1L13,4.9L13,5l0.1,0.1L13,5.2l-0.2,0l0-0.1
		L12.8,5l0-0.1l0-0.1l-0.1,0l-0.2-0.1l0-0.1l-0.1-0.1L12.5,4.3L12.5,4.3z M12.4,6.3L12.4,6.3l0.2,0.4l0.1,0l0.1,0.3L12.9,7l0,0.1
		l0,0.1l-0.1,0.1l-0.1-0.1l-0.1-0.1c0,0-0.1-0.1-0.1-0.1c0,0,0-0.2,0-0.2l-0.1-0.2l0-0.2L12.4,6.3l-0.2,0l0-0.1L12.1,6l0-0.1l0.1,0
		l0.2,0.2L12.4,6.3z M11.5,4.4L11.5,4.4l0.1-0.2l0.1,0l0,0.1l0.1,0l0.1,0l0,0l-0.1,0l0,0l0-0.1l0.1,0l0,0l0,0.1l0,0l0,0l0.1,0.1
		l0.1,0l0,0l0,0l0.1,0.1l0,0.1l0,0l-0.1,0l-0.1,0l-0.1,0l-0.1,0c0,0-0.1,0-0.1,0c0,0,0,0.1,0,0.1l-0.1,0c0,0-0.1,0-0.1,0
		c0,0-0.1-0.1-0.1-0.1l-0.1,0L11.5,4.4L11.5,4.4L11.5,4.4z M6.8,1.1L6.8,1.1C6.7,1.2,6.7,1.2,6.8,1.1C6.7,1.2,6.7,1.2,6.8,1.1z
		 M5.1,1.6C5.1,1.6,5.2,1.6,5.1,1.6C5.2,1.6,5.2,1.6,5.1,1.6C5.2,1.6,5.2,1.6,5.1,1.6c0.1,0,0.1,0,0.1,0c0,0,0,0,0,0c0,0,0,0,0,0
		c0,0,0,0,0,0c0,0,0,0,0,0c0,0,0,0,0,0l0,0l0,0c0,0,0,0,0,0c0,0,0,0,0,0c0,0-0.1,0-0.1,0c0,0,0,0,0,0l0,0c0,0,0,0,0,0c0,0,0,0,0,0
		c0,0,0,0,0,0C5.2,1.6,5.2,1.6,5.1,1.6C5.2,1.6,5.2,1.7,5.1,1.6C5.2,1.7,5.1,1.7,5.1,1.6C5.1,1.6,5.1,1.6,5.1,1.6z M5,1.6
		C5,1.6,5,1.6,5,1.6C5,1.6,5,1.7,5,1.6C5,1.7,5,1.7,5,1.6C5,1.7,5,1.7,5,1.7l0,0l0,0.1c0,0,0,0,0,0c0,0-0.1,0-0.1,0c0,0,0,0,0,0
		c0,0-0.1,0-0.1,0s0-0.1,0-0.1c0,0-0.1,0-0.1,0c0,0,0,0,0,0C4.8,1.7,4.9,1.6,5,1.6z M1.3,5.8C1.3,5.8,1.3,5.8,1.3,5.8
		c0,0,0,0.1,0,0.1C1.3,5.9,1.3,5.8,1.3,5.8z M7.6,14.1C4,14.1,1.1,11.3,1,7.7C1,7.1,1.1,6.6,1.2,6l0,0.1l0,0l0,0c0,0,0,0.1,0,0.1
		c0,0,0,0.1,0,0.1c0,0,0,0.1,0,0.1s0,0.1,0,0.1c0,0,0,0.1,0,0.1l0,0.3l0,0.1c0,0,0,0.1,0,0.1c0,0,0.1,0.1,0.1,0.1c0,0,0,0.1,0,0.1
		l0,0.1l0,0l0,0l0-0.1c0,0,0-0.1,0-0.1c0,0,0-0.1,0-0.1c0,0,0,0,0-0.1c0,0,0-0.1,0-0.1c0,0,0-0.1,0-0.1c0,0,0-0.1,0-0.1
		c0,0,0-0.1,0-0.1l0,0c0,0,0,0.1,0,0.1c0,0,0,0.1,0,0.1s0,0.1,0,0.1c0,0,0,0.1,0,0.1c0,0,0,0.1,0,0.1C1.5,7,1.6,7,1.6,7
		s0.1,0.2,0.1,0.2c0,0,0,0.1,0,0.1c0,0,0.1,0,0.1,0c0,0,0,0.1,0,0.1l0,0.1l0.1,0.1c0,0,0.1,0,0.1,0c0,0,0,0.1,0,0.1c0,0,0,0.1,0,0.1
		C2,7.8,2,7.9,2,7.9c0,0,0.1,0,0.1,0l0.1,0.1l0.1,0l0.1,0l0,0l0.1,0l0.1,0c0,0,0,0,0,0.1c0,0,0,0,0,0c0,0,0,0,0,0c0,0,0,0,0,0
		c0,0,0.1,0,0.1,0c0,0,0,0.1,0,0.1s0.1,0,0.1,0c0,0,0,0,0,0l0.1,0.1l0,0c0,0,0,0,0,0c0,0,0,0.1,0,0.1l0,0l0,0c0,0,0.1,0,0.1,0
		c0,0,0,0,0,0.1c0,0,0,0.1,0,0.1l0.1,0l0.1,0l0,0.1l0.1,0l0,0l0,0c0,0,0,0,0,0c0,0,0,0,0,0l0.1,0l0,0.1l0,0.1l0,0l0,0l0,0l0,0l0,0
		c0,0,0,0,0,0.1c0,0,0,0.1,0,0.1s0,0,0,0c0,0,0,0,0,0.1c0,0,0,0.1,0,0.1c0,0,0,0.1,0,0.1c0,0,0,0.1,0,0.1c0,0,0,0,0.1,0
		c0,0,0,0.1,0,0.1c0,0,0,0.1,0,0.1c0,0,0,0,0,0l0,0c0,0,0,0,0,0c0,0,0,0.1,0,0.1c0,0-0.1,0-0.1,0l0,0.1l0,0.1l0.1,0l0,0.1l0,0.1
		c0,0,0,0.1,0,0.1c0,0,0,0.1,0,0.1c0,0,0,0.1,0,0.1s0.1,0,0.1,0c0,0,0.1,0.1,0.1,0.1l0.1,0.1l0.1,0.1l0,0l0.3,0.3
		C3.9,10.9,4,11,4,11c0,0,0.1,0,0.1,0l0.1,0l0.1,0c0,0,0.2,0.2,0.2,0.2c0,0,0,0,0,0.1c0,0,0,0.1,0,0.1c0,0,0,0.1,0,0.1
		c0,0,0.1,0,0.1,0c0,0,0,0.1,0,0.1c0,0,0,0.1,0,0.1l0.1,0.1l0.1,0.2c0,0,0,0.1,0,0.1c0,0,0,0.1,0,0.1l0,0l0,0.1l0.1,0.1L5,13
		c0,0,0.1,0,0.1,0c0,0,0,0.1,0,0.1l0.1,0l0,0.1l0.1,0c0,0,0.1,0.1,0.1,0.1c0,0,0,0.1,0,0.1l0.1,0l0,0c0,0,0.1,0.1,0.1,0.1
		c0,0,0.1,0,0.1,0l0.1,0.1l0.1,0.1l0,0l0.1,0l0,0l0,0c0,0-0.1,0-0.1,0l-0.1,0c0,0,0,0,0,0c0,0,0,0,0-0.1c0,0-0.1,0-0.1,0s0,0,0,0
		c0,0,0-0.1,0-0.1c0,0,0-0.1,0-0.1c0,0,0,0-0.1,0c0,0-0.1-0.1-0.1-0.1c0,0,0-0.1,0-0.1s0-0.1,0-0.1c0,0,0-0.1,0-0.1c0,0,0,0,0,0
		c0,0,0,0,0,0l0,0l0,0l0-0.1l0,0c0,0,0.1,0,0.1,0c0,0,0.1,0,0.1,0c0,0,0-0.1,0-0.1c0,0-0.1-0.1-0.1-0.1l-0.1-0.1l0.1,0l0.1-0.1
		l0.1,0l0-0.1c0,0,0.1-0.1,0.1-0.1c0,0,0-0.1,0-0.1C6,12,6,12,6,12c0,0,0-0.1,0-0.1c0,0,0-0.1,0-0.1c0,0,0-0.1,0-0.1
		c0,0,0.1-0.1,0.1-0.1c0,0,0.1,0,0.1,0l0.1,0c0,0,0.1,0,0.1-0.1c0,0,0.1,0,0.1,0c0,0,0.1,0,0.1,0l0-0.1c0,0,0-0.1,0-0.1
		c0,0,0-0.1,0-0.1c0,0,0.1-0.1,0.1-0.1l0-0.1l-0.1-0.2c0,0,0-0.1,0-0.1c0,0,0-0.1,0-0.1c0,0,0.1-0.1,0.1-0.1l0.1,0c0,0,0-0.1,0-0.1
		c0,0,0.1-0.1,0.1-0.1c0,0,0-0.1,0-0.1l-0.1-0.1l-0.1-0.1l-0.1,0c0,0-0.1,0-0.1,0c0,0-0.1-0.1-0.1-0.1c0,0,0,0,0,0S6.5,10,6.4,10
		c0,0-0.1,0-0.1,0l-0.1,0l-0.1,0c0,0-0.1-0.1-0.1-0.1c0,0-0.1,0-0.1,0L5.9,9.8c0,0-0.1,0-0.1,0c0,0-0.1,0-0.1,0c0,0-0.1,0-0.1,0
		c0,0-0.1,0.1-0.1,0.1l-0.1,0c0,0,0,0,0-0.1c0,0,0,0,0-0.1c0,0,0-0.1,0-0.1c0,0,0-0.1,0-0.1c0,0,0,0,0,0S5.2,9.3,5.2,9.3
		c0,0-0.1,0-0.1,0c0,0-0.1,0-0.1,0S5,9.2,5,9.2c0,0-0.1,0-0.1,0l0-0.1c0,0,0,0-0.1,0c0,0,0,0,0,0c0,0-0.1-0.1-0.1-0.1
		c0,0-0.1,0-0.1,0L4.6,9l0,0l0-0.1c0,0,0,0,0,0c0,0,0,0,0,0l0,0l-0.1,0c0,0-0.1,0-0.1,0c0,0-0.1,0-0.1,0c0,0,0,0,0,0l-0.1,0
		c0,0-0.1,0-0.1,0c0,0-0.1,0-0.1,0l0,0l-0.1,0c0,0-0.1,0-0.1,0c0,0,0,0,0-0.1c0,0,0,0,0,0c0,0,0,0,0,0c0,0,0,0,0,0s0,0,0,0
		c0,0,0,0,0,0.1c0,0,0,0.1,0,0.1s-0.1,0-0.1,0c0,0,0-0.1,0-0.1c0,0,0-0.1,0-0.1l0,0c0,0,0,0,0,0c0,0,0,0,0,0l-0.1,0l0,0l0,0l0-0.1
		l0,0l-0.1,0c0,0-0.1,0-0.1,0c0,0,0,0-0.1,0c0,0-0.1,0-0.1,0s0,0,0,0c0,0,0,0,0,0s0,0-0.1,0c0,0,0,0,0,0s0,0,0,0c0,0,0-0.1,0-0.1
		c0,0-0.1-0.1-0.1-0.1c0,0,0,0,0,0l0-0.1l0,0l0,0l0,0l0,0l0,0l0-0.1c0,0,0,0,0,0c0,0-0.1,0-0.1,0c0,0,0,0,0,0l-0.1,0c0,0,0,0,0,0
		c0,0,0,0,0,0l0,0c0,0,0-0.1,0-0.1c0,0,0,0,0,0c0,0,0-0.1,0-0.1c0,0,0-0.1,0-0.1l0,0l0,0l0,0c0,0,0,0,0,0c0,0,0,0,0-0.1c0,0,0,0,0,0
		c0,0,0,0,0,0c0,0-0.1,0-0.1,0s0,0,0,0c0,0,0,0.1,0,0.1c0,0,0,0.1,0,0.1s0,0,0,0c0,0,0,0-0.1,0c0,0-0.1,0-0.1,0c0,0,0,0-0.1,0
		c0,0,0,0,0,0c0,0,0,0,0,0c0,0,0,0,0,0l0-0.1c0,0,0-0.1,0-0.1c0,0,0-0.1,0-0.1c0,0,0,0,0-0.1c0,0,0,0,0,0c0,0,0-0.1,0-0.1
		c0,0,0-0.1,0-0.1c0,0,0-0.1,0-0.1l0,0l0.1-0.2c0,0,0.1-0.1,0.1-0.1c0,0,0.1,0,0.1,0l0,0l0,0l0.1,0l0,0l0.1,0c0,0,0,0,0,0
		c0,0,0,0,0,0c0,0,0.1,0,0.1,0s0-0.1,0-0.1c0,0,0,0,0,0c0,0,0.1,0,0.1,0c0,0,0,0,0,0c0,0,0,0,0,0c0,0,0.1,0,0.1,0s0,0,0,0
		c0,0,0,0,0,0c0,0,0,0,0,0s0.1,0,0.1,0c0,0,0,0,0,0.1c0,0,0,0,0.1,0c0,0,0,0,0,0.1c0,0,0,0.1,0,0.1l0,0.1c0,0,0,0,0,0
		c0,0,0,0.1,0,0.1c0,0,0.1,0,0.1,0c0,0,0,0.1,0,0.1c0,0,0.1,0,0.1,0c0,0,0,0,0,0l0,0c0,0,0,0,0-0.1c0,0,0,0,0-0.1c0,0,0-0.1,0-0.1
		c0,0,0-0.1,0-0.1s0-0.1,0-0.1c0,0,0-0.1,0-0.1c0,0,0-0.1,0-0.1l0-0.1c0,0,0,0,0,0c0,0,0.1-0.1,0.1-0.1l0,0l0,0l0.1,0c0,0,0,0,0,0
		c0,0,0,0,0,0l0,0l0.1,0c0,0,0,0,0,0c0,0,0.1,0,0.1-0.1c0,0,0,0,0,0c0,0,0,0,0.1,0c0,0,0,0,0-0.1c0,0,0,0,0-0.1c0,0,0-0.1,0-0.1
		s0.1,0,0.1-0.1c0,0,0-0.1,0-0.1l0,0c0,0,0,0,0.1,0c0,0,0,0,0,0l0,0c0,0,0,0,0-0.1c0,0,0-0.1,0-0.1l0.1,0l0.1,0l0,0l0,0l0.1,0
		c0,0,0,0,0,0c0,0,0,0,0,0l0,0l0,0c0,0,0,0,0-0.1c0,0,0,0,0,0c0,0,0,0,0,0l0.1,0c0,0,0,0,0,0L4.7,5l0,0l0.1,0l0,0c0,0,0,0,0,0
		c0,0,0,0,0,0c0,0,0,0.1,0,0.1l0,0c0,0,0.1,0,0.1,0l0,0l0,0l0.1,0l0,0l0,0l0,0l0.1-0.1l0,0c0,0,0.1,0,0.1,0c0,0,0.1,0,0.1,0s0,0,0,0
		c0,0,0,0,0,0c0,0,0,0,0,0l0,0c0,0,0,0,0,0c0,0,0,0,0,0l0,0l0,0.1c0,0-0.1,0-0.1,0c0,0,0,0-0.1,0c0,0,0,0,0,0c0,0,0,0,0,0l0-0.1l0,0
		l0,0c0,0,0.1,0,0.1,0c0,0,0,0,0,0c0,0,0,0,0,0c0,0,0,0-0.1,0c0,0-0.1,0-0.1,0c0,0,0,0,0,0l-0.1,0l0,0c0,0,0,0,0,0c0,0,0.1,0,0.1,0
		s0,0,0,0c0,0,0,0,0,0l0,0l0.1,0l0,0l0,0l0.1,0l0.1,0l0.1,0c0,0,0.1,0,0.1,0c0,0,0.1,0,0.1,0s0,0,0,0c0,0,0.1-0.1,0.1-0.1l0,0l0,0
		l0,0l0,0l0,0.1l0,0l0,0.1c0,0,0,0-0.1,0c0,0,0,0,0,0c0,0,0,0,0,0l0,0c0,0,0,0,0,0c0,0,0,0,0,0l0.1,0l0.1,0l0.1,0l0,0l0,0.1l0.1,0
		l0,0l0,0c0,0,0,0,0,0c0,0,0.1,0,0.1,0c0,0,0,0,0,0s0,0,0,0c0,0,0,0,0-0.1c0,0,0,0,0,0c0,0,0,0,0,0l0,0c0,0,0,0,0,0c0,0,0,0,0,0l0,0
		l0,0l0,0c0,0,0,0,0-0.1l0,0l0,0l0,0l0,0c0,0,0,0,0,0c0,0,0,0,0,0c0,0,0,0,0,0l0-0.1c0,0,0,0,0,0c0,0,0,0,0,0l0,0c0,0,0-0.1,0-0.1
		c0,0-0.1,0-0.1,0S5.4,4,5.3,4l0-0.1l0,0l0,0l0,0l0,0c0,0,0,0,0,0c0,0,0,0,0,0l-0.1,0l0,0c0,0,0,0,0,0c0,0,0,0,0,0l0,0l0,0l0,0
		l-0.1,0c0,0,0,0,0,0c0,0,0,0,0,0S5,3.6,5,3.6l0,0l-0.1,0c0,0,0,0,0,0c0,0,0-0.1,0-0.1s0,0,0,0c0,0,0,0,0,0s0,0,0,0c0,0,0,0,0,0
		l-0.1,0l0,0l-0.1,0c0,0-0.1,0-0.1,0c0,0,0,0,0,0c0,0,0,0-0.1,0c0,0-0.1,0-0.1,0c0,0-0.1,0-0.1,0s0,0-0.1,0c0,0,0,0,0,0c0,0,0,0,0,0
		s0,0,0,0c0,0,0,0,0,0l0,0l0,0.1l-0.1,0l0,0c0,0,0,0-0.1,0c0,0,0,0.1,0,0.1s0,0,0,0c0,0,0,0,0,0c0,0,0,0,0,0s0,0,0,0
		c0,0,0,0.1,0,0.1s0,0,0,0c0,0,0,0,0,0l0,0l0,0c0,0,0,0,0,0c0,0,0,0,0,0s0,0,0,0c0,0,0,0,0,0l0,0c0,0,0,0,0,0.1c0,0,0,0,0,0l0,0
		c0,0,0,0,0,0c0,0,0,0.1,0,0.1c0,0,0,0.1,0,0.1l-0.1,0l0,0c0,0,0,0,0,0c0,0,0,0,0,0s0,0,0-0.1c0,0,0,0,0,0c0,0,0-0.1,0-0.1l0,0l0,0
		l0-0.1c0,0,0-0.1,0-0.1c0,0-0.1,0-0.1,0l0,0l0,0l-0.1,0l0,0c0,0,0,0,0,0c0,0,0,0-0.1,0c0,0,0-0.1,0-0.1l0,0l0,0l0-0.1c0,0,0,0,0,0
		c0,0,0-0.1,0-0.1l0-0.1l0.1,0l0,0c0,0,0.1,0,0.1,0c0,0,0,0,0.1,0c0,0,0-0.1,0-0.1c0,0,0,0,0,0s0.1,0,0.1,0c0,0,0,0,0,0c0,0,0,0,0,0
		s0,0,0,0c0,0,0.1,0,0.1,0l0.1,0l0.1-0.1l0,0l0,0l0,0c0,0,0,0,0,0c0,0,0,0,0,0c0,0,0,0,0,0s0.1,0,0.1,0c0,0,0,0,0.1,0c0,0,0,0,0,0
		c0,0,0,0,0,0l0,0l0,0l0,0l0,0l0,0c0,0,0,0-0.1,0c0,0,0-0.1,0-0.1l0-0.1c0,0,0,0,0,0c0,0,0.1,0,0.1,0l0,0c0,0,0,0,0,0c0,0,0,0,0,0
		l0.1-0.1c0,0,0,0,0-0.1c0,0,0-0.1,0-0.1s0,0,0,0c0,0,0.1,0,0.1,0c0,0,0,0,0-0.1c0,0,0,0,0,0c0,0,0.1,0,0.1,0s0,0,0-0.1c0,0,0,0,0,0
		l0,0l0,0l0,0l0,0l0,0l0,0l0,0l0,0c0,0,0,0,0,0c0,0,0,0,0,0c0,0-0.1,0-0.1,0l0,0.1c0,0,0.1,0,0.1,0c0,0,0.1,0,0.1,0c0,0,0,0,0,0l0,0
		l0,0l0,0l0.1,0l0,0l0,0l0,0.1l0,0c0,0,0,0,0,0c0,0,0,0,0,0c0,0,0,0,0,0c0,0,0,0-0.1,0c0,0-0.1,0-0.1,0s0,0-0.1,0c0,0-0.1,0-0.1,0
		s0,0,0,0c0,0,0,0,0,0l0,0.1c0,0,0,0,0,0c0,0,0.1,0,0.1,0s0,0,0,0c0,0,0,0,0.1,0c0,0,0,0,0.1,0c0,0,0,0,0,0c0,0,0,0,0,0s0,0,0,0
		c0,0,0,0,0,0l0,0c0,0,0,0,0,0c0,0,0,0,0,0l0,0l0,0l0,0l0,0c0,0,0.1,0,0.1,0c0,0,0,0,0,0c0,0,0,0,0,0c0,0,0,0,0-0.1c0,0,0-0.1,0-0.1
		l0.1,0c0,0,0,0,0,0l0,0c0,0,0,0.1,0,0.1c0,0,0,0,0.1,0c0,0,0,0,0,0l0-0.1l0-0.1l0,0c0,0,0-0.1,0,0c0,0,0-0.1,0-0.1c0,0,0,0,0,0
		l0.1,0l0,0c0,0,0,0,0,0c0,0,0,0.1,0,0.1l0.1,0l0,0c0,0,0,0,0,0c0,0,0,0,0,0c0,0,0,0,0,0l0.1,0l0,0l-0.1,0c0,0,0,0,0,0
		c0,0-0.1,0-0.1,0l0,0l0,0c0,0-0.1,0-0.1,0c0,0,0,0,0,0l0,0l0,0l0-0.1c0,0,0,0,0,0c0,0,0-0.1,0-0.1c0,0,0-0.1,0-0.1c0,0,0,0,0,0l0,0
		l-0.1,0l0,0l0,0c0,0-0.1-0.1-0.1-0.1c0,0-0.1,0.1-0.1,0.1s-0.1,0-0.1,0c0,0,0,0,0,0s0-0.1,0-0.1c0,0,0,0,0,0s0,0-0.1,0
		c0,0-0.1,0-0.1,0c0,0,0,0,0,0c0,0-0.1,0-0.1,0s0,0,0,0c0,0,0,0-0.1,0c0,0,0,0,0,0c0,0,0,0,0,0l0,0l0,0.1c0,0,0,0,0,0c0,0,0,0,0,0
		s0,0,0,0c0,0,0,0.1,0,0.1s0,0,0,0c0,0,0,0,0,0l0,0l-0.1,0c0,0-0.1,0.1-0.1,0.1c0,0,0,0,0,0s0,0,0-0.1c0,0,0-0.1,0-0.1c0,0,0,0,0,0
		c0,0,0,0,0-0.1c0,0,0-0.1,0-0.1c0,0,0-0.1,0-0.1s0.1-0.1,0.1-0.1c0,0,0-0.1,0-0.1c0,0,0.1,0,0.1,0l0.1,0l0,0c0,0-0.1,0-0.1,0
		c0,0-0.1,0-0.1,0s0,0,0,0c0,0-0.1,0-0.1,0c0,0-0.1,0-0.1,0c0,0-0.1,0-0.1,0c0,0-0.1,0-0.1,0l0,0.1c0,0,0,0,0,0c0,0,0,0,0,0
		c0,0,0,0,0,0l0,0l0,0c0,0,0,0.1,0,0.1c0,0,0,0,0,0l0,0c0,0,0,0,0,0c0,0-0.1,0-0.1,0c0,0,0,0,0,0c0,0-0.1,0-0.1,0c0,0,0,0,0,0
		l-0.1,0c0,0,0,0-0.1,0c0,0,0,0-0.1,0c0,0-0.1,0-0.1,0l0,0l0,0l-0.1,0c0,0,0,0,0,0l0,0l-0.1,0c0,0,0.1-0.1,0.1-0.1l0,0c0,0,0,0,0,0
		c0,0,0.1,0,0.1,0s0.1,0.1,0.1,0.1c0,0,0.1,0,0.1,0c0,0,0,0,0,0s0.1,0,0.1,0c0,0,0,0,0,0s0,0,0,0c0,0,0,0,0,0s0,0,0,0
		c0,0,0-0.1,0-0.1l0.1,0c0,0,0,0,0,0C4.1,2.1,4.2,2,4.4,1.9l0,0l0,0c0,0,0,0,0,0c0,0,0,0,0,0l0,0c0.1,0,0.1-0.1,0.2-0.1c0,0,0,0,0,0
		l0,0l0,0.1l-0.1,0c0,0,0,0.1,0,0.1c0,0,0.1,0,0.1,0c0,0,0.1,0,0.1,0c0,0,0.1,0,0.1,0c0,0,0.1,0,0.1,0C5,2,5,2,5,2c0,0,0.1,0,0.1,0
		c0,0,0-0.1,0-0.1c0,0,0,0,0,0c0,0,0,0,0,0c0,0,0.1,0,0.1,0c0,0,0.1,0,0.1,0l0-0.1c0,0,0.1,0,0.1,0c0,0,0.1,0,0.1,0c0,0,0-0.1,0-0.1
		c0,0,0.1,0,0.1,0c0,0,0.1,0,0.1,0s0,0,0.1,0c0,0,0.1,0,0.1,0c0,0,0.1,0,0.1,0c0,0,0.1,0,0.1,0c0,0,0.1,0,0.1,0l0,0l0,0l0.1,0
		c0,0,0,0,0-0.1c0,0,0,0,0.1,0c0,0,0.1,0,0.1,0l0.1,0l0.1,0l0,0c0,0,0.1,0,0.1,0l0,0l-0.1,0l-0.1,0l-0.1,0l0,0.1l-0.1,0l0,0l-0.1,0
		l0,0l0,0l0,0l0,0l0,0l0,0l0,0l0,0l0,0l0,0l0,0c0,0,0,0,0.1,0c0,0,0,0.1,0,0.1c0,0,0,0.1,0,0.1l0,0l0,0.1l0,0.1l0,0.1l0,0.1l0,0l0,0
		l0,0.1c0,0,0,0,0,0c0,0,0,0,0,0L6.1,2.1l0,0l0,0l0.1,0l0,0l0,0l0,0l0,0.1c0,0,0,0-0.1,0l0,0.1l0,0l0,0.1L6,2.7l0,0.1l0,0l0,0.1l0,0
		l0,0l0,0l0,0l0,0l0,0l0,0l0.1,0l0,0l0,0l0,0l0.1,0l0.1,0l0,0l0,0l0,0l0,0l0,0l0,0l0.1,0l0,0l0.1,0l0,0l0,0l0,0l0-0.1l0,0l0-0.1
		l0-0.1l0,0l0-0.1l0-0.1l0,0l0,0l0,0l0,0l0,0l0,0l0-0.1c0,0,0.1,0,0.1,0l0.1,0l0,0l0,0l0,0l0.1-0.1l0.1-0.1l0,0l0,0l0.1,0l0,0l0,0
		l0,0l0,0l0,0l0,0l0,0l0-0.1l0,0l-0.1,0l0,0l0,0c0,0,0,0-0.1,0c0,0,0-0.1,0-0.1c0,0,0,0,0-0.1c0,0,0,0-0.1-0.1c0,0,0,0-0.1,0
		c0,0,0-0.1-0.1-0.1c0,0,0,0,0,0c0,0,0,0,0-0.1c0,0,0,0,0-0.1c0.1,0,0.2,0,0.2,0c0.4,0,0.8,0,1.2,0.1l0,0l0.1,0.1l0.1,0l0.1,0.1
		l0.1,0l0.1,0l0-0.1L9,1.3c0.7,0.2,1.4,0.5,2.1,0.9l0,0l0,0.1l-0.1-0.1l-0.1,0l0,0.1l0,0l-0.2-0.1l-0.2-0.1l-0.1,0l-0.1,0
		c0,0,0-0.1,0-0.1c0,0-0.1,0-0.1,0c0,0-0.1,0-0.1,0c0,0,0,0-0.1,0c0,0-0.1,0.1-0.2,0.1c0,0,0,0,0,0c0,0-0.1,0.1-0.1,0.1
		c0,0,0,0.1-0.1,0.1c0,0,0,0.1,0,0.1c0,0,0,0.2,0,0.2L9.5,2.6c0,0-0.1,0-0.1,0c0,0-0.1,0.1-0.1,0.1c0,0,0,0.1,0,0.1s0,0.1,0,0.1
		c0,0,0,0,0.1,0.1c0,0,0,0,0,0c0,0,0,0,0,0l0.1,0c0,0,0-0.1,0.1-0.1c0,0,0,0,0,0c0,0,0.1,0,0.1,0c0,0,0,0,0.1,0.1c0,0,0.1,0,0.1,0.1
		c0,0,0,0,0,0c0,0,0,0,0,0l0,0.1c0,0,0,0,0,0c0,0,0,0.1,0,0.1c0,0,0.2,0,0.2,0s0,0,0,0c0,0,0.1,0,0.1,0c0-0.1,0-0.1,0-0.1
		c0,0,0,0,0-0.1c0,0,0-0.1,0-0.1c0-0.1,0-0.1-0.1-0.1c0,0-0.1,0-0.1-0.1c0,0,0,0,0,0c0,0,0-0.1,0-0.1c0,0,0.1,0,0.1,0s0,0,0-0.1
		c0,0,0,0,0,0c0,0,0-0.1,0-0.1c0,0-0.1-0.1,0,0c0.2,0,0.2,0,0.2,0.1c0,0,0,0,0,0c0,0,0,0,0,0c0,0,0,0,0,0c0,0,0,0.1,0,0.1s0,0,0,0
		c0,0,0.1,0.1,0.1,0.1l0.1,0.1c0,0,0.1,0,0.1,0c0,0,0.1,0,0.1,0l0.1,0l0,0l-0.1,0L10.6,3l0,0.1l0,0l0,0l-0.1,0.1l0,0.1l0,0.1
		l-0.3,0.1l-0.2,0l-0.1,0l-0.1,0L9.7,3.5L9.6,3.6l0,0.1L9.4,3.9l-0.1,0L9.2,4L9.2,4L9.1,4L9,4l0,0.1l0.1,0l0.1,0c0,0,0.1,0,0.1,0
		c0,0,0,0.1,0,0.1l0,0.1l-0.4,0l-0.1,0l-0.1,0l0,0.1l0.1,0l0,0.2l0,0.1l0,0.1c0,0-0.1,0,0,0.1c0.1,0,0.2,0,0.2,0s0,0,0.1,0
		c0,0,0.1,0,0.1,0l0,0l0.1,0l0.1,0l0-0.1l0.1,0l0-0.1l0.1-0.1l0-0.1l0,0l0-0.1l0-0.1l0,0l0.1,0c0,0,0.1,0,0.1,0c0,0,0-0.1,0-0.1
		l0.1,0l0.1,0c0,0,0,0.1,0,0.1c0,0,0.1,0,0.1,0c0,0,0.3,0.2,0.3,0.2s0.1,0,0.1,0c0,0,0,0.1,0,0.1c0,0,0.1,0.1,0.1,0.1l0,0.1l-0.1,0
		c0,0-0.1,0-0.1,0c0,0,0,0,0,0.1c0,0,0.1,0.1,0.1,0.1l0,0l0.1-0.1c0,0,0-0.1,0-0.1c0,0,0.1,0,0.1-0.1c0,0,0-0.1,0-0.1l0-0.1
		c0,0-0.1-0.1-0.1-0.1c0,0-0.1,0-0.1,0l-0.1-0.1l-0.1,0l0-0.1l0.1,0l0.1,0.1c0,0,0.1,0.1,0.1,0.1c0,0,0.1,0.2,0.1,0.2s0,0,0,0.1
		c0,0,0,0,0,0c0,0,0.1,0,0.1,0L11.1,5l0,0.1l0.1,0l0.1,0l0-0.1c0,0,0.1,0,0-0.1c0,0-0.1-0.1-0.1-0.1l0-0.1l0.1,0l0-0.1l0.1,0
		c0,0,0.1,0,0.1,0.1c0,0,0,0,0,0.1c0,0,0.1,0.1,0.1,0.1l0,0.1l0.1,0.1l0.1,0l0.1,0l0,0c0,0,0,0,0,0c0,0,0.1,0,0.1,0l0.1,0l0,0l0,0
		l0,0.1l0,0.1l0,0.1L12,5.7l-0.1,0l-0.1,0l-0.2,0l-0.2-0.1c0,0-0.1,0-0.1,0c0,0-0.1,0-0.1,0l-0.2,0l0,0.1l-0.1,0c0,0,0,0,0,0
		c0,0,0,0,0,0l0,0l-0.1,0l-0.2-0.1l-0.1,0l0-0.1l-0.1,0l-0.1,0l-0.1,0l0.1-0.1l0-0.1l0-0.1l0-0.1l-0.1,0l-0.1,0l-0.1,0l-0.1,0
		l-0.3,0L9.6,5.2l-0.2,0L9.4,5.3l-0.2,0l-0.1,0L9,5.3l0,0.2c0,0-0.2,0.1-0.2,0.1c0,0,0,0.2,0,0.2l0,0.1L8.6,6L8.5,6l0,0.1L8.3,6.3
		l0,0.1L8.2,6.6l0,0.1l0.1,0.2L8.3,7l0,0.1L8.2,7.2l0,0.1l0,0.2l0.1,0l0.1,0.1l0.1,0.1l0,0.1L8.6,8l0.1,0.1l0.2,0.1l0.1,0.1l0.2,0
		l0.1,0l0.1,0l0.1,0l0.1-0.1c0,0,0.1,0,0.1,0C9.9,8.1,10,8,10,8l0.1,0.1l0,0.1l0.1,0l0.1,0.1l0.1,0l0.1-0.1l0,0.1l0,0.2l-0.1,0.1
		l0.1,0.1l0.1,0.1l0.1,0.3l0.1,0l0,0.3l-0.1,0.1l0,0.1l-0.1,0.1L10.5,10l0,0.1l0,0.1l0.1,0.1l0,0.2l0,0.2c0,0,0,0.1,0,0.1
		c0,0,0,0.1,0,0.2c0,0,0.1,0.1,0.1,0.1l0,0.2l-0.1,0.1l0,0.1l0.2,0l0.3-0.1l0.1-0.1l0.3-0.3l0.1-0.1l0-0.1c0,0,0-0.1,0.1-0.1
		c0,0,0.2-0.1,0.2-0.1l0-0.1l0-0.2l0.2-0.1l0.1-0.1l0.3-0.2l0-0.2l0-0.4l0.1-0.2l0-0.1l0.4-0.5l0.2-0.2l0-0.1l0.2-0.3l0.1-0.2l0-0.1
		l0-0.1l-0.2,0l-0.1,0.1l-0.1,0l0-0.1l0-0.1l0.3-0.3l0.1-0.1L13.4,7L13.5,7l0.1-0.1l0-0.1l0.1,0l0-0.2l-0.1-0.1l0-0.1l-0.1,0l0,0.1
		l-0.1,0l-0.1-0.1l-0.1-0.1l0-0.1l-0.1-0.1L13,5.8l0-0.1l0.1,0l0,0.1l0.3,0.3l0.1,0l0.1,0.1l0,0l0.1,0l0.1,0l0.1,0.1l0,0
		C14,6.7,14,7.1,14,7.5C14.1,11.1,11.2,14.1,7.6,14.1z"/>
	<path class="st0" d="M12.9,9.8L12.9,9.8L12.7,10L12.6,10l0,0.1l0,0.2l-0.1,0.1c0,0-0.1,0.1-0.1,0.1c0,0,0,0.1,0,0.1l-0.1,0.1
		l0.1,0.1l0.1,0l0-0.1l0.1-0.1l0.1-0.2c0,0,0.1-0.2,0.1-0.2c0,0,0-0.2,0-0.2S13,9.9,13,9.9c0,0,0-0.2,0-0.2L12.9,9.8z"/>
	<path class="st0" d="M8.6,3.8l0.1,0l0-0.1l0-0.1c0,0,0,0,0,0c0,0,0.1-0.1,0.1-0.1l0,0L9,3.5L9,3.5l0,0.1l-0.1,0l0,0l0,0l0,0l0,0
		l0.1,0l0,0c0,0-0.1,0-0.1,0c0,0,0,0.1,0,0.1l0,0l0.1,0l0.1,0l0.1,0l0.1,0l0-0.1c0,0,0-0.1,0-0.1c0,0,0-0.1,0-0.1L9.3,3.6l-0.1,0
		l0-0.1L9,3.4L9,3.3l0,0l0.1,0l0-0.1l-0.1,0l0,0L8.8,3l-0.1,0l0,0.1l0,0.1l0,0l0,0.1l0,0l-0.1,0l-0.1,0L8.6,3.5l-0.1,0
		c0,0,0,0.1,0,0.1c0,0,0,0.1,0,0.1C8.5,3.7,8.6,3.8,8.6,3.8z"/>
	<polygon class="st0" points="8.1,2.4 8,2.4 8,2.3 7.9,2.4 7.8,2.3 7.7,2.3 7.7,2.4 7.6,2.4 7.6,2.3 7.6,2.3 7.5,2.4 7.5,2.4 
		7.5,2.5 7.5,2.5 7.6,2.5 7.6,2.6 7.7,2.6 7.7,2.6 7.8,2.7 7.9,2.6 8,2.6 8.1,2.5 	"/>
	<path class="st0" d="M3.8,7.5C3.8,7.5,3.8,7.5,3.8,7.5c-0.1,0-0.1,0-0.2,0c0,0,0,0,0,0c0,0,0,0-0.1,0c0,0-0.1,0-0.1,0s0,0-0.1,0
		c0,0-0.1,0-0.1,0c0,0-0.1,0-0.1,0s0,0,0-0.1c0,0-0.1,0-0.1,0c0,0,0,0,0,0c0,0,0,0,0,0c0,0,0,0,0,0l0,0l0,0c0,0,0,0,0,0c0,0,0,0,0,0
		c0,0,0,0,0,0c0,0,0,0,0.1,0c0,0,0,0,0,0c0,0,0.1,0,0.1,0c0,0,0,0,0,0c0,0,0,0,0.1,0c0,0,0,0,0,0c0,0,0,0,0,0c0,0,0.1,0,0.1,0
		c0,0,0.1,0,0.1,0c0,0,0.1,0.1,0.1,0.1C3.7,7.6,3.8,7.5,3.8,7.5C3.8,7.5,3.8,7.5,3.8,7.5z"/>
	<path class="st0" d="M3.6,7.6C3.6,7.6,3.5,7.7,3.6,7.6L3.6,7.6c-0.1,0-0.1,0-0.1,0L3.6,7.6L3.6,7.6l0,0.1L3.6,7.6L3.6,7.6L3.6,7.6
		C3.6,7.7,3.6,7.6,3.6,7.6z"/>
	<path class="st0" d="M4.3,7.6C4.3,7.6,4.2,7.6,4.3,7.6C4.2,7.6,4.2,7.6,4.3,7.6C4.2,7.5,4.1,7.5,4.1,7.5c0,0-0.1,0-0.1,0L4,7.5l0,0
		l0,0c0,0,0,0,0,0c0,0,0.1,0,0.1,0s0,0,0,0c0,0,0,0,0,0l-0.1,0l0,0l0,0c0,0,0,0,0,0c0,0,0.1,0,0.1,0s0.1,0,0.1,0c0,0,0,0,0,0
		c0,0,0,0,0,0c0,0,0,0,0,0c0,0,0.1,0,0.1,0c0,0,0,0,0,0S4.2,7.7,4.3,7.6C4.2,7.7,4.2,7.7,4.3,7.6C4.2,7.7,4.2,7.7,4.3,7.6L4.3,7.6
		C4.3,7.7,4.3,7.6,4.3,7.6z"/>
	<path class="st0" d="M4.5,7.6L4.5,7.6l-0.1,0C4.4,7.7,4.4,7.7,4.5,7.6C4.4,7.7,4.4,7.7,4.5,7.6c0,0.1,0,0.1,0,0.1
		C4.5,7.8,4.5,7.7,4.5,7.6C4.5,7.7,4.5,7.7,4.5,7.6C4.5,7.7,4.5,7.7,4.5,7.6C4.5,7.7,4.5,7.7,4.5,7.6L4.5,7.6L4.5,7.6L4.5,7.6z"/>
	<path class="st0" d="M3.9,2.5L3.9,2.5L3.9,2.5L3.9,2.5C3.8,2.6,3.9,2.6,3.9,2.5L3.9,2.5L3.9,2.5L3.9,2.5z"/>
	<polygon class="st0" points="12.1,5.3 12,5.3 11.9,5.3 11.9,5.3 12,5.4 	"/>
	<polygon class="st0" points="10.1,4.8 10.2,4.9 10.3,4.9 10.3,4.9 10.3,4.8 10.2,4.8 10.2,4.8 10.2,4.7 10.1,4.6 10.1,4.6 
		10.1,4.7 10.1,4.7 	"/>
	<polygon class="st0" points="11.4,5.4 11.5,5.3 11.5,5.4 11.6,5.3 11.6,5.3 11.6,5.3 11.5,5.3 11.4,5.3 11.4,5.2 11.3,5.3 
		11.3,5.3 	"/>
	<path class="st0" d="M9.7,3.4L9.7,3.4L9.7,3.4L9.7,3.4l0.1,0l0,0l0,0l0-0.1c0,0,0,0,0,0c0,0,0,0,0,0l0,0l-0.1,0l-0.1,0l0,0.1
		L9.7,3.4L9.7,3.4L9.7,3.4z"/>
</g>
</svg>
