<?xml version="1.0" encoding="utf-8"?>
<!-- Generator: Adobe Illustrator 22.1.0, SVG Export Plug-In . SVG Version: 6.00 Build 0)  -->
<svg version="1.1" id="Layer_1" xmlns="http://www.w3.org/2000/svg" xmlns:xlink="http://www.w3.org/1999/xlink" x="0px" y="0px"
	 viewBox="0 0 61 61" style="enable-background:new 0 0 61 61;" xml:space="preserve">
<style type="text/css">
	.st0{fill:#FFFFFF;}
</style>
<g>
	<path class="st0" d="M18.1,25.1c-4.2,0-7.6,3.7-7.6,8.2c0,4.5,3.4,8.2,7.6,8.2c4.2,0,7.6-3.7,7.6-8.2
		C25.8,28.7,22.3,25.1,18.1,25.1z M18.1,40.3c-3.6,0-6.6-3.2-6.6-7.1c0-3.9,3-7.1,6.6-7.1c3.6,0,6.6,3.2,6.6,7.1
		C24.7,37.1,21.7,40.3,18.1,40.3z"/>
	<path class="st0" d="M18.1,27.5c-3,0-5.4,2.6-5.4,5.7c0,0.3,0.2,0.5,0.5,0.5c0.3,0,0.5-0.2,0.5-0.5c0-2.6,1.9-4.7,4.3-4.7
		c0.3,0,0.5-0.2,0.5-0.5S18.4,27.5,18.1,27.5z"/>
	<path class="st0" d="M42.9,25.1c-4.2,0-7.6,3.7-7.6,8.2c0,4.5,3.4,8.2,7.6,8.2c4.2,0,7.6-3.7,7.6-8.2
		C50.5,28.7,47.1,25.1,42.9,25.1z M42.9,40.3c-3.6,0-6.6-3.2-6.6-7.1c0-3.9,3-7.1,6.6-7.1c3.6,0,6.6,3.2,6.6,7.1
		C49.5,37.1,46.5,40.3,42.9,40.3z"/>
	<path class="st0" d="M42.9,27.5c-3,0-5.4,2.6-5.4,5.7c0,0.3,0.2,0.5,0.5,0.5c0.3,0,0.5-0.2,0.5-0.5c0-2.6,1.9-4.7,4.3-4.7
		c0.3,0,0.5-0.2,0.5-0.5S43.2,27.5,42.9,27.5z"/>
	<path class="st0" d="M30.5,25.3c-1.1,0-2,0.9-2,2.1c0,1.1,0.9,2.1,2,2.1c1.1,0,2-0.9,2-2.1C32.5,26.2,31.6,25.3,30.5,25.3z
		 M30.5,28.4c-0.5,0-0.9-0.5-0.9-1c0-0.6,0.4-1,0.9-1c0.5,0,0.9,0.5,0.9,1C31.4,27.9,31,28.4,30.5,28.4z"/>
	<path class="st0" d="M49.8,25.6l-6.5-7c0,0,0,0,0,0c0,0,0,0,0,0c-1-0.9-2.4-1.4-3.7-1.4c-2.8,0-5.1,2.3-5.3,5.2
		c-0.6-0.3-1.2-0.6-1.7-1.1c-1.2-1.2-3.1-1.2-4.3,0c-0.5,0.5-1.1,0.8-1.7,1.1c-0.2-2.9-2.5-5.2-5.3-5.2c-1.3,0-2.7,0.6-3.7,1.4
		c0,0,0,0,0,0c0,0,0,0,0,0l-6.5,7c-2,2.1-3,4.9-3,7.6c0,5.8,4.4,10.6,9.9,10.6c5.3,0,9.6-4.5,9.9-10.1h5c0.3,5.6,4.6,10.1,9.9,10.1
		c5.5,0,9.9-4.7,9.9-10.6C52.8,30.3,51.7,27.6,49.8,25.6z M25.7,22.7c-0.3,0.1-0.6,0.1-0.9,0.1h0c-0.3,0-0.5,0.2-0.5,0.5
		c0,0.3,0.2,0.5,0.5,0.5h0c1.6,0,3.1-0.6,4.4-1.8c0.8-0.8,2-0.8,2.8,0c1.2,1.2,2.8,1.8,4.4,1.8c0.3,0,0.5-0.2,0.5-0.5
		c0-0.3-0.2-0.5-0.5-0.5c-0.3,0-0.6,0-0.9-0.1c0.1-2.5,1.9-4.5,4.2-4.5c1,0,2.2,0.5,2.9,1.2l3.6,3.8c-1-0.4-2.1-0.6-3.2-0.6
		c-2.6,0-5,1.1-6.8,2.9c-1.3,0-2.5-0.6-3.5-1.5c-1.2-1.2-3.1-1.2-4.3,0c-1,0.9-2.2,1.4-3.5,1.5c-1.8-1.8-4.2-2.9-6.8-2.9
		c-1.1,0-2.2,0.2-3.2,0.6l3.6-3.8c0.8-0.7,1.9-1.2,2.9-1.2C23.7,18.3,25.6,20.2,25.7,22.7z M33,32.7h-5c-0.1-2.3-0.9-4.5-2.2-6.2
		c1.2-0.2,2.4-0.8,3.3-1.7c0.8-0.8,2-0.8,2.8,0c1,0.9,2.1,1.5,3.3,1.7C33.9,28.2,33.1,30.3,33,32.7z M18.1,42.7
		c-4.9,0-8.9-4.3-8.9-9.5c0-5.1,3.9-9.5,8.9-9.5c4.9,0,8.9,4.3,8.9,9.5C27,38.5,23,42.7,18.1,42.7z M42.9,42.7
		c-4.9,0-8.9-4.3-8.9-9.5c0-5.3,4-9.5,8.9-9.5c4.9,0,8.9,4.4,8.9,9.5C51.7,38.5,47.8,42.7,42.9,42.7z"/>
</g>
</svg>
