<?xml version="1.0" encoding="utf-8"?>
<!-- Generator: Adobe Illustrator 22.1.0, SVG Export Plug-In . SVG Version: 6.00 Build 0)  -->
<svg version="1.1" id="Layer_1" xmlns="http://www.w3.org/2000/svg" xmlns:xlink="http://www.w3.org/1999/xlink" x="0px" y="0px"
	 viewBox="0 0 80.3 76.4" style="enable-background:new 0 0 80.3 76.4;" xml:space="preserve">
<style type="text/css">
	.st0{fill:#FF9100;}
	.st1{fill:none;stroke:#000000;stroke-width:1.5;stroke-miterlimit:22.9256;}
	.st2{fill:#FF9100;stroke:#000000;stroke-width:1.5;stroke-linejoin:round;stroke-miterlimit:22.9256;}
</style>
<g>
	<g>
		<path class="st0" d="M45.9,44.6c-0.1-0.7,0.9-1.6,1.3-2.1c0.4-0.5,0-1.5-0.7-1.2c-0.5,0.2-0.8,0.4-1.1,0.8
			c-0.5,0.6,0.1,1.5,0.8,1.1c1.4-0.8,2.2-2.7,2.9-4.1c-0.4-0.1-0.9-0.2-1.3-0.4c0,0.7-0.7,1.9-1.5,1.8c-0.9-0.1-0.9,1.3,0,1.4
			c1.7,0.2,2.8-1.8,2.9-3.2c0-0.7-1-1-1.3-0.4c-0.6,1.1-1.3,2.9-2.4,3.5c0.3,0.4,0.6,0.7,0.8,1.1c0.2-0.1,0.3-0.3,0.5-0.4
			c-0.2-0.4-0.5-0.8-0.7-1.2c-0.8,0.9-1.9,1.8-1.7,3.1C44.6,45.5,46,45.5,45.9,44.6L45.9,44.6z"/>
	</g>
</g>
<g>
	<g>
		<path class="st0" d="M47.5,41.5c0.4-0.3,0.7-0.6,0.8-1.1c0.2-0.9-1.1-1.2-1.3-0.4c0,0.1,0,0.2-0.2,0.3
			C46.1,40.8,46.8,42,47.5,41.5L47.5,41.5z"/>
	</g>
</g>
<g>
	<g>
		<path class="st0" d="M45,45.7c0.9,0,0.9-1.4,0-1.4S44.1,45.7,45,45.7L45,45.7z"/>
	</g>
</g>
<g>
	<g>
		<path class="st0" d="M46.6,43.8c0.2-0.3,0.4-0.6,0.7-0.8c0.7-0.5,0-1.7-0.7-1.2c-0.5,0.3-0.9,0.8-1.2,1.3
			C45,43.9,46.2,44.6,46.6,43.8L46.6,43.8z"/>
	</g>
</g>
<path class="st1" d="M56.5,43.7l3.6,0.8c0.2,0,0.4,0,0.6-0.1l4.7-1.9c1.5-0.7,2.6,1.6,1.1,2.3l-5.2,2.1c-0.3,0.1-0.5,0.2-0.9,0.2
	l-5.3-0.3c-0.3,0-0.6,0.1-0.9,0.3l-3.4,4.2L50,55.6c-0.2,0.6-0.7,1.2-1.3,1.6l-5.3,4.1C43,61.7,41,59.4,41.6,59l4.9-4.3
	c0.2-0.2,0.3-0.4,0.3-0.6l-0.1-3.3c0-0.4-0.6-0.7-0.8-0.6l-3.5,1.4c-0.1,0.1-0.3,0.2-0.4,0.3l-4.4,5.5C37.1,58,35,56,35.4,55.6
	l4.1-6c0.3-0.3,0.6-0.6,1-0.8l4.5-2.5c0.5-0.7,4.4-5.8,4.4-6.3l0.7-5.3c0-0.3,0.1-0.6,0.3-0.8l3.1-4.6c1-1.4,3,0,2,1.4L53,34.9
	c-0.1,0.2-0.2,0.4-0.2,0.6v3.7C53.1,40.6,55.2,43.1,56.5,43.7L56.5,43.7z"/>
<path class="st1" d="M60.5,39.6c0.2-0.3,0.4-0.6,0.4-0.8c0.5-1.7-2.4-4.7-4.3-3.1c-0.5,0.5-1.6,1.8-1.8,2.5c-0.2,0.8,0,1.9,0.6,2.5
	c0.7,0.9,1.8,1.3,2.9,0.7C59.1,41.1,60.1,40.1,60.5,39.6L60.5,39.6z"/>
<path class="st1" d="M45,46.3l-0.9-1.5c-0.3-0.5-0.2-1.1,0.1-1.6l3.6-5.3c0.1-0.2,0.3-0.2,0.5-0.2c0.4,0,0.8,0.1,1.2,0.3"/>
<path class="st2" d="M38,38.1l4.5-2.9c-0.6-0.4-1.5-1.5-2.3-1.3c-1.3,0.3-2.8,0.7-4.1,1.1l-3.3-3.9l8.2-8.8L39.5,21
	c-0.7-0.4-1.4-0.5-2.1-0.1c-0.8,0.6-9,5.5-9.1,5.6l-1.9-1.9c-0.8-0.8-2.3-1.6-3.4-2.1c-2.2-0.9-3.4,0.2-2.4,2.4
	c0.4,1.1,1.2,2.5,2.1,3.4l1.9,1.9c-0.1,0.1-5,8.3-5.6,9.1c-0.4,0.7-0.3,1.4,0.1,2.1l1.3,1.5l8.8-8.2l3.9,3.3
	c-0.4,1.3-0.9,2.8-1.1,4.1c-0.2,0.8,0.8,1.7,1.3,2.3l2.9-4.5l0.7,0.2l1.3-1.3L38,38.1z"/>
</svg>
