<?xml version="1.0" encoding="utf-8"?>
<!-- Generator: Adobe Illustrator 22.1.0, SVG Export Plug-In . SVG Version: 6.00 Build 0)  -->
<svg version="1.1" id="Layer_1" xmlns="http://www.w3.org/2000/svg" xmlns:xlink="http://www.w3.org/1999/xlink" x="0px" y="0px"
	 viewBox="0 0 15 15" style="enable-background:new 0 0 15 15;" xml:space="preserve">
<style type="text/css">
	.st0{fill:#FFFFFF;}
</style>
<path class="st0" d="M9.8,8c1.1-0.8,1.9-2.1,1.9-3.5c0-2.3-1.9-4.2-4.2-4.2c-2.3,0-4.2,1.9-4.2,4.2c0,1.5,0.8,2.8,1.9,3.5
	c-2.6,1-4.4,3.4-4.4,6.4v0.6h13.6v-0.6C14.2,11.4,12.3,8.9,9.8,8z M4.3,4.4c0-1.7,1.4-3.1,3.1-3.1c1.7,0,3.1,1.4,3.1,3.1
	c0,1.7-1.4,3.1-3.1,3.1C5.7,7.6,4.3,6.2,4.3,4.4z M1.8,13.8c0.3-2.9,2.7-5.1,5.6-5.1c2.9,0,5.3,2.2,5.6,5.1H1.8z"/>
</svg>
