<?xml version="1.0" encoding="utf-8"?>
<!-- Generator: Adobe Illustrator 22.1.0, SVG Export Plug-In . SVG Version: 6.00 Build 0)  -->
<svg version="1.1" id="Layer_1" xmlns="http://www.w3.org/2000/svg" xmlns:xlink="http://www.w3.org/1999/xlink" x="0px" y="0px"
	 viewBox="0 0 61 61" style="enable-background:new 0 0 61 61;" xml:space="preserve">
<style type="text/css">
	.st0{fill:none;stroke:#FFFFFF;stroke-width:1.2038;stroke-linecap:round;stroke-miterlimit:10;}
</style>
<g>
	<path class="st0" d="M44.1,20.9c0-7.9-6.7-14.3-14.8-13.7C22.6,7.6,17.1,13,16.6,19.7c-0.3,4.2,1.2,8.1,3.9,10.8
		c1.5,1.5,2.4,3.6,2.4,5.8v0h14.8v-0.1c0-2.1,0.8-4.2,2.3-5.6C42.5,28.2,44.1,24.7,44.1,20.9z"/>
	<path class="st0" d="M19.5,20c0.4-5.3,4.7-9.5,10-9.9c0.3,0,0.5,0,0.8,0c2.7,0,5.2,1,7.2,2.7"/>
	<line class="st0" x1="22.8" y1="39.3" x2="37.8" y2="39.3"/>
	<path class="st0" d="M31.6,49.4H29c-3.4,0-6.1-2.7-6.1-6.1v-1h14.9v1C37.8,46.6,35,49.4,31.6,49.4z"/>
	<path class="st0" d="M28.1,49.3v0.8c0,1.2,1,2.2,2.2,2.2l0,0c1.2,0,2.2-1,2.2-2.2v-0.8"/>
</g>
</svg>
