<?xml version="1.0" encoding="utf-8"?>
<!-- Generator: Adobe Illustrator 22.1.0, SVG Export Plug-In . SVG Version: 6.00 Build 0)  -->
<svg version="1.1" id="Layer_1" xmlns="http://www.w3.org/2000/svg" xmlns:xlink="http://www.w3.org/1999/xlink" x="0px" y="0px"
	 viewBox="0 0 299 49" style="enable-background:new 0 0 299 49;" xml:space="preserve">
<path d="M28.9,14.3c-0.1-1.9-0.1-4.2-0.1-6.4C28.1,8,25.3,8,22.2,8h-8.9c-1.9,0-3.6,0-5.6-0.1C7.5,8,7.4,8.9,7.7,9.1l0.8,0.1
	c2.8,0.3,2.9,1,2.9,6.1v17.6c0,5.1-0.1,5.8-2.9,6.1l-1.2,0.2c-0.3,0.3-0.2,1.1,0.1,1.2c2.3-0.1,3.9-0.2,6-0.2c1.9,0,3.6,0.1,6.4,0.2
	c0.3-0.2,0.4-1,0.1-1.2L18.2,39c-2.8-0.2-2.9-1-2.9-6.1v-6.8c0-1.3,0.1-1.3,1.6-1.3h3.3c1.8,0,3,0,3.7,0.2c0.9,0.3,1.3,1,1.5,1.8
	l0.5,1.9c0.3,0.3,1.1,0.3,1.3,0c0-1.1-0.2-3-0.2-4.7c0-1.8,0.2-3.8,0.2-4.9c-0.2-0.3-1-0.3-1.3,0l-0.4,2c-0.3,1.3-0.7,1.5-1.2,1.7
	c-0.6,0.2-2.1,0.3-4.1,0.3h-3.3c-1.4,0-1.6,0-1.6-1.3V11.5c0-1.9,0-1.9,1.4-1.9h2.9c2,0,3.6,0,4.7,0.3c2.4,0.6,3,2.4,3.4,4.6
	C28.1,14.8,28.8,14.6,28.9,14.3 M72,25.5c0,9.6-5.5,14-11.3,14c-9.5,0-13-9.4-13-16.6c0-10.7,6.5-14.2,11.5-14.2
	C68.5,8.8,72,17.4,72,25.5 M76.9,24c0-8.6-5.6-16.7-16.7-16.7C50.2,7.3,43,14.7,43,24.5C43,33.2,49.4,41,60.1,41
	C69.4,41,76.9,33.8,76.9,24 M107.3,23c-1.4,1.1-3.2,1.3-5,1.3c-2.5,0-3.2-0.1-3.3-0.2c-0.1-0.2-0.1-0.7-0.1-1.6V11
	c0-1.4,0.1-1.6,3.1-1.6c5.4,0,7.7,3.7,7.7,7.5C109.7,20.2,108.6,21.9,107.3,23 M121.4,40.5c0.2-0.2,0.2-0.6,0-0.7
	c-1.3-0.1-2.5-0.6-3.3-1.4c-3.3-2.8-5.8-6.7-9.7-13c-0.2-0.4-0.5-0.9-0.2-1.2c2.4-1,6-3.5,6-8.1c0-3.4-1.7-5.6-4-6.8
	c-2.2-1.2-5.1-1.5-8.1-1.5C97.3,7.9,94,8,91.3,8.3c-0.4,0.2-0.4,1-0.1,1.2l1.5,0.2c2,0.2,2.1,1.1,2.1,5.7v17.5
	c0,5.1-0.1,5.8-2.9,6.1l-1.2,0.2c-0.3,0.3-0.2,1.1,0.1,1.2c2.3-0.1,4-0.2,6-0.2c1.9,0,3.6,0.1,5.7,0.2c0.3-0.2,0.4-1,0.1-1.2l-1-0.2
	c-2.8-0.4-2.9-1-2.9-6.1v-6.1c0-1,0.1-1.1,2.3-1.1c1.9,0,2.7,0.5,3.4,1.6c1.5,2.2,3.5,5.6,4.7,7.4c3.4,4.9,5.9,6.1,10,6.1
	C120.2,40.7,120.9,40.6,121.4,40.5 M155,40.4c0.6-1.3,1.8-5.1,2.2-6.8c-0.2-0.4-0.9-0.6-1.2-0.3c-1.3,2.5-2.6,4.2-3.4,4.7
	c-1.1,0.5-2.5,0.7-6.2,0.7c-4.2,0-5.3-0.5-5.8-1.1c-0.8-0.8-0.9-2.5-0.9-5.1v-6.9c0-1.3,0.1-1.3,1.6-1.3h2.8c1.9,0,3,0.1,3.7,0.2
	c1,0.2,1.3,1,1.5,1.9l0.4,1.9c0.2,0.3,1.1,0.3,1.3,0c0-1.1-0.2-2.9-0.2-4.7c0-1.9,0.2-3.8,0.2-4.9c-0.2-0.3-1-0.3-1.3-0.1l-0.4,2
	c-0.2,1.2-0.6,1.5-1.2,1.7c-0.6,0.2-2.1,0.3-4.1,0.3h-2.8c-1.4,0-1.6,0-1.6-1.4v-9.8c0-1.9,0-1.9,1.4-1.9h3.5c2.1,0,3.7,0,4.7,0.3
	c2.5,0.6,2.9,2.3,3.7,4.6c0.2,0.3,1,0.2,1.2-0.1c-0.2-2.1-0.5-5.7-0.8-6.5C152.7,8,149.9,8,146.8,8h-9.1c-2,0-3.6,0-5.7-0.1
	c-0.3,0.1-0.4,1-0.1,1.2l0.8,0.1c2.8,0.3,2.9,1.1,2.9,6.1v17.6c0,5.1-0.2,5.9-3,6.1l-1.6,0.2c-0.3,0.3-0.2,1.1,0.1,1.2
	c2.8-0.1,4.5-0.2,6.6-0.2h4.3C146.3,40.2,150.6,40.3,155,40.4 M200.4,9.1c0.2-0.2,0.2-1-0.1-1.2C198.7,8,197.2,8,195.7,8
	c-1.8,0-3.7,0-5-0.1c-0.3,0.2-0.4,0.9-0.1,1.2l0.9,0.1c1.7,0.2,2.2,0.6,2.2,0.9c0,0.3,0,0.9-0.4,1.9c-0.8,2.1-3.1,7.6-4.5,10.9
	c-1.1,2.6-3.1,7.6-4.6,10.8c-2.4-5.6-4.6-11.2-6.8-16.8c-1.5-3.7-2.3-6.3-2.4-6.8c0.1-0.4,0.4-0.7,2.3-0.9l0.7-0.1
	c0.3-0.3,0.2-1-0.1-1.2C175.6,8,174,8,171.8,8c-2.1,0-3.6,0-5-0.1c-0.4,0.2-0.4,0.9-0.1,1.2l0.9,0.1c2.1,0.2,2.8,1.3,3.9,4l8.5,21.2
	c0.8,2.1,1.7,4.4,2.2,6.5c0.2,0.1,0.5,0.1,0.7,0.1c0.2,0,0.4-0.1,0.5-0.1c0.8-2.6,3.1-8.2,5-12.7l2.6-6c2.2-5,4.1-8.9,5.4-11.2
	c0.6-1,1.4-1.6,2.5-1.7L200.4,9.1z M234.4,40.4c0.6-1.3,1.8-5.1,2.2-6.8c-0.2-0.4-0.9-0.6-1.2-0.3c-1.3,2.5-2.6,4.2-3.4,4.7
	c-1.1,0.5-2.5,0.7-6.2,0.7c-4.2,0-5.3-0.5-5.8-1.1c-0.8-0.8-0.9-2.5-0.9-5.1v-6.9c0-1.3,0.1-1.3,1.6-1.3h2.8c1.9,0,3,0.1,3.7,0.2
	c1,0.2,1.3,1,1.5,1.9l0.4,1.9c0.2,0.3,1.1,0.3,1.3,0c0-1.1-0.2-2.9-0.2-4.7c0-1.9,0.2-3.8,0.2-4.9c-0.2-0.3-1-0.3-1.3-0.1l-0.4,2
	c-0.2,1.2-0.6,1.5-1.2,1.7c-0.6,0.2-2.1,0.3-4.1,0.3h-2.8c-1.5,0-1.6,0-1.6-1.4v-9.8c0-1.9,0-1.9,1.4-1.9h3.5c2.1,0,3.7,0,4.7,0.3
	c2.5,0.6,2.9,2.3,3.7,4.6c0.2,0.3,1,0.2,1.2-0.1c-0.2-2.1-0.5-5.7-0.8-6.5C232.1,8,229.3,8,226.2,8h-9.1c-2,0-3.6,0-5.7-0.1
	c-0.3,0.1-0.4,1-0.1,1.2l0.8,0.1c2.8,0.3,2.9,1.1,2.9,6.1v17.6c0,5.1-0.2,5.9-3,6.1l-1.6,0.2c-0.3,0.3-0.2,1.1,0.1,1.2
	c2.9-0.1,4.5-0.2,6.6-0.2h4.3C225.8,40.2,230.1,40.3,234.4,40.4 M265.3,23c-1.4,1.1-3.2,1.3-5,1.3c-2.5,0-3.2-0.1-3.3-0.2
	c-0.1-0.2-0.1-0.7-0.1-1.6V11c0-1.4,0.1-1.6,3.1-1.6c5.4,0,7.7,3.7,7.7,7.5C267.7,20.2,266.6,21.9,265.3,23 M279.3,40.5
	c0.2-0.2,0.2-0.6,0-0.7c-1.3-0.1-2.5-0.6-3.3-1.4c-3.3-2.8-5.8-6.7-9.7-13c-0.2-0.4-0.5-0.9-0.2-1.2c2.4-1,6-3.5,6-8.1
	c0-3.4-1.7-5.6-4-6.8c-2.2-1.2-5.1-1.5-8-1.5c-4.7,0-8.1,0.1-10.8,0.4c-0.4,0.2-0.4,1,0,1.2l1.5,0.2c2,0.2,2.1,1.1,2.1,5.7v17.5
	c0,5.1-0.1,5.8-2.9,6.1l-1.2,0.2c-0.3,0.3-0.2,1.1,0.1,1.2c2.3-0.1,4-0.2,6-0.2c1.9,0,3.6,0.1,5.7,0.2c0.3-0.2,0.4-1,0.1-1.2l-1-0.2
	c-2.8-0.4-2.9-1-2.9-6.1v-6.1c0-1,0.1-1.1,2.3-1.1c1.9,0,2.7,0.5,3.4,1.6c1.5,2.2,3.5,5.6,4.7,7.4c3.4,4.9,5.9,6.1,10,6.1
	C278.1,40.7,278.9,40.6,279.3,40.5 M286,13.6h-1.1V12h1c0.1,0,0.3,0,0.4,0c0.2,0,0.3,0.1,0.4,0.1c0.1,0.1,0.2,0.1,0.3,0.2
	c0.1,0.1,0.1,0.2,0.1,0.4c0,0.4-0.1,0.6-0.3,0.7C286.6,13.5,286.4,13.6,286,13.6 M288.5,17.2l-1.6-2.7c0.2,0,0.4-0.1,0.6-0.1
	c0.2-0.1,0.4-0.2,0.5-0.3c0.1-0.1,0.3-0.3,0.3-0.5c0.1-0.2,0.1-0.4,0.1-0.7c0-0.7-0.2-1.1-0.6-1.4c-0.4-0.3-1-0.4-1.8-0.4h-2.3v6.2
	h1.2v-2.6h0.8l1.5,2.6L288.5,17.2L288.5,17.2z M290,14.1c0,0.6-0.1,1.2-0.3,1.7c-0.2,0.5-0.5,1-0.9,1.4c-0.4,0.4-0.8,0.7-1.3,0.9
	c-0.5,0.2-1,0.3-1.6,0.3c-0.6,0-1.1-0.1-1.6-0.3c-0.5-0.2-0.9-0.5-1.3-0.9c-0.4-0.4-0.7-0.8-0.9-1.4c-0.2-0.5-0.3-1.1-0.3-1.7
	c0-0.6,0.1-1.2,0.3-1.7c0.2-0.5,0.5-1,0.9-1.4c0.4-0.4,0.8-0.7,1.3-0.9c0.5-0.2,1-0.3,1.6-0.3c0.6,0,1.1,0.1,1.6,0.3
	c0.5,0.2,0.9,0.5,1.3,0.9c0.4,0.4,0.7,0.8,0.9,1.4C289.9,12.9,290,13.5,290,14.1 M291.5,14.1c0-0.8-0.2-1.6-0.5-2.3
	c-0.3-0.7-0.7-1.3-1.2-1.7c-0.5-0.5-1.1-0.8-1.8-1.1c-0.7-0.3-1.4-0.4-2.1-0.4c-0.7,0-1.4,0.1-2.1,0.4c-0.7,0.3-1.3,0.6-1.8,1.1
	c-0.5,0.5-0.9,1.1-1.2,1.7c-0.3,0.7-0.5,1.4-0.5,2.3c0,0.8,0.2,1.6,0.5,2.3c0.3,0.7,0.7,1.3,1.2,1.7c0.5,0.5,1.1,0.9,1.8,1.1
	c0.7,0.3,1.4,0.4,2.1,0.4c0.7,0,1.4-0.1,2.1-0.4c0.7-0.3,1.3-0.6,1.8-1.1c0.5-0.5,0.9-1.1,1.2-1.7C291.4,15.7,291.5,14.9,291.5,14.1
	"/>
</svg>
