<?xml version="1.0" encoding="utf-8"?>
<!-- Generator: Adobe Illustrator 22.1.0, SVG Export Plug-In . SVG Version: 6.00 Build 0)  -->
<svg version="1.1" id="Layer_1" xmlns="http://www.w3.org/2000/svg" xmlns:xlink="http://www.w3.org/1999/xlink" x="0px" y="0px"
	 viewBox="0 0 932 836" style="enable-background:new 0 0 932 836;" xml:space="preserve">
<style type="text/css">
	.st0{fill:#FFFFFF;}
	.st1{fill:none;stroke:#E5E5E5;stroke-width:14.85;stroke-miterlimit:10;}
	.st2{fill:#FFC600;stroke:#F6F6F6;stroke-width:15;stroke-miterlimit:10;}
</style>
<g>
	<path class="st0" d="M0-4v839.4h931.8V-4H0z M414,808C197,808,21,632,21,415S197,22,414,22s393,176,393,393S631,808,414,808z"/>
</g>
<circle class="st1" cx="412.5" cy="418.5" r="396"/>
<circle class="st2" cx="758.5" cy="642.5" r="150"/>
<g>
	<path d="M855.7,691.9c-1.1-0.2-3.5-0.7-7-0.7c-0.5-0.2-1.8-0.8-2.1-1.8c0,0-0.4,1.4-1,1.8c-2.1,0.1-4.6,0.5-7.2,1.1
		c-0.6-0.1-1.8-0.4-2.4-1.2c0,0-0.1,1.3-0.5,2c-1.7,0.5-3.6,1.1-5.4,1.9c-0.1,0-0.2,0.1-0.3,0.1c-0.4,0-2,0-2.8-0.8
		c0,0,0.1,1.6-0.3,2.2c-1.8,0.9-3.8,1.9-6,3.1c-0.6,0-1.8,0-2.6-0.7c0,0,0.2,1.6-0.2,2.2c-1,0.6-2,1.1-3,1.7l-10.2,6l0,0
		c-1.6,0.9-3.1,1.9-4.7,2.8c-0.7,0-1.7-0.1-2.4-0.7c0,0,0.2,1.7-0.2,2.2c-0.8,0.5-1.6,1-2.3,1.4l0,0l-11.9,7.1
		c-0.6,0-1.7-0.1-2.3-0.7c0,0,0.2,1.5-0.1,2.2c-1.8,1.1-3.6,2.1-5.3,3.1c-0.6,0-1.9,0-2.6-0.7c0,0,0.2,1.8-0.2,2.3
		c-0.8,0.4-1.6,0.9-2.4,1.3c-1,0.5-2,1-2.9,1.4c-0.6,0-1.8-0.2-2.4-0.9c0,0,0.1,1.3-0.2,2c-2.4,1-4.5,1.7-6.4,2.2
		c-0.4-0.1-2-0.3-2.7-1.2c0,0-0.1,1.3-0.5,1.9c-6.2,1.1-9.2-0.3-9.2-0.3c0.6,9.7,8.2,10.1,8.2,10.1c19.8,3.6,39.4-15.1,61.3-32.6
		c1.2-1,2.9-2.3,3.5-2.8c23-17.9,37.5-15.4,37.5-15.4C858.9,693.8,858.2,692.3,855.7,691.9"/>
	<path d="M838.5,600.1c-3.1,0.8-7.6,4.7-9,5.9c-1.4,1.3-4.8,4.7-4.8,4.7s-0.2-0.5-0.1-0.9c0.1-0.4,0.4-1,1.7-2.4
		c1.2-1.4,7.5-8.5,8.4-9.5s5.1-4.5,5.4-5.3c0.4-0.8-0.3-0.7-1.4-0.5c-1.1,0.2-3,1-5.7,2.8s-6,5.9-6,5.9l-0.2,0.8
		c0,0-0.2-0.1-0.9,0.7c-0.7,0.9-3.3,4.1-3.3,4.1s-0.2,0-0.3-0.2s-0.1-0.8,0.1-1.2c0.2-0.3,3.4-5.8,4-6.8s4.2-7,4.5-7.5
		s1.7-3.1,2.3-4s0.6-1.9-1-1.2c-2.9,1.3-6.6,6.4-7.9,8.4c-1.3,2-4,6.8-4,6.8s-0.5,0.2-0.7,0.2s-0.4-0.9-0.2-1.6
		c0.2-0.7,1.9-5.1,2.6-7.7c0.7-2.6,2.2-7.8,2.3-8.9c0.1-1.1,0-1.7-0.6-1.3c-0.6,0.3-2.7,2.7-3.4,4.3c-0.7,1.5-2.8,7.3-3.2,8.2
		s-1.4,2.3-1.4,2.3s0.2-2,0.5-3.2s1.3-9.6,1.4-11.2c0.1-1.6-0.4-1.3-0.7-0.9c-0.3,0.3-2.1,3-2.6,4.1s-1.7,5-1.9,6s-0.6-0.7-0.7-1.4
		c0-0.7-0.3-5.3-0.5-6.1s-0.7-0.5-1-0.2c-0.4,0.3-1.4,1.4-1.8,2.1c-0.3,0.5-0.6,2.3-0.9,4.4c-0.2-1-0.5-2.4-0.7-3.5
		c-0.4-2.1-1.1-2.6-1.9-1.9c-0.4,0.3-0.9,1-1.6,1.6c-0.1,0.1-0.2,0.3-0.3,0.4c-0.6,0.6-1.2,1-1.4,0.4c-0.4-1.2-1.2-1.1-2.3-0.3
		c-1.1,0.9-2.3,2.2-3.1,1.1c-0.7-1.1-2.5,1.4-3.1,3s-0.7,1.7-1.7,1.2s-6,0.6-17.3,11c-5.5,5-8.3,8.9-9.8,11.7
		c3.2,11.3,8.7,18,9.1,18.9c0.5,0.9,1.8,2.2,1.4,2.8c-0.4,0.6-1.8-0.8-1.8-0.8c-8.4-7.4-13.6-22.2-15.3-27.6
		c-0.6-1.5-1.1-3.1-1.5-4.6c-2-8-9.7-11.8-13.2-15.2c-2.5-2.4-4-4.8-4.6-6c-1.3-3.9-2.8-8.2-3.3-9.7c-1-2.9-6.5-19.3-6.9-21.7
		s-0.9-3.5-1.7-0.4c-0.8,3.2,0.5,12.5,1.7,16.3s3.8,9.6,3.8,9.6s-0.4,0.6-0.7,0.8s-0.9-0.4-1.6-1.3c-0.7-0.9-7.3-11.8-9.3-15.8
		s-8.1-15.1-9.3-17.3c-1.2-2.3-2.1,0.8-1.7,5.8c0.4,4.9,5,13,6.5,15.4c1.5,2.5,5.8,8.6,5.8,8.6s-0.9,0.2-1.4,0
		c-0.6-0.2-1.3-0.9-3.2-3.2c-1.8-2.3-10.9-13.8-12.2-15.5s-5.4-9-6.5-9.8s-1.1,0.3-1.1,2.1s0.7,5,2.7,9.6c2.1,4.6,7.3,10.8,7.3,10.8
		l7.3,8.3c0,0,0,0.3-0.4,0.4c-0.4,0.1-1.3,0-1.7-0.5c-0.5-0.4-7.9-6.8-9.2-8s-9.4-8.4-10.2-9s-4.2-3.5-5.4-4.6
		c-1.2-1.2-2.7-1.5-2,1.3c1.2,4.8,7.8,11.9,10.5,14.4s9.2,8,9.2,8s0.2,0.8,0.1,1.1c-0.1,0.3-1.5,0.4-2.5-0.1s-7.2-4.3-10.9-6.1
		s-11.2-5.4-12.8-5.9c-1.7-0.4-2.5-0.4-2.2,0.6c0.4,1.1,3.4,4.9,5.5,6.4c2.1,1.4,10.3,6.3,11.5,7.1s3.1,2.7,3.1,2.7
		s-2.9-0.8-4.7-1.7c-1.8-0.8-14.1-4.5-16.6-5.1c-2.4-0.6-2,0.3-1.6,0.9c0.4,0.6,3.9,4.1,5.5,5.1s7.1,3.9,8.6,4.5s-1.3,0.8-2.3,0.6
		c-1.1-0.2-8.2-0.9-9.4-0.9s-0.9,0.9-0.6,1.5c0.3,0.6,1.7,2.4,2.7,3.3c0.9,0.8,6,2.4,10.8,4.3c-2.9-0.4-8.4,0.5-9.3,0.9
		c-0.9,0.3-2.3,1-2.4,1.6c-0.1,0.6,1.3,2.4,1.8,2.9s3.1,2.7,3.1,2.7s-1.6,0.5-2.6,0.8c-1,0.4-0.9,1.4-0.2,2.3c0.8,1,3.3,3.9,3.3,3.9
		s-1.4,0.6-1.7,0.7c-4.1,1.7,6.7,7.6,6.2,8.7c-0.7,1.3-0.7,5.2,2.7,13.3c3.4,8,9.4,17.6,18.8,26c0,0,0.4,0.5,1.1,0.3
		c0.7-0.2,1.6-0.2,1.5,1.5s1.5,5,5.1,6.2c0.2,0.1,0.4,0.1,0.7,0.2l0.1,0.1c0.2,0.1,0.4,0.1,0.6,0c3.4,0.4,7.4-1.1,8,0.4
		c0.7,1.7-0.8,3.7,1.8,3.9s6.9-1.5,6.9-1.5s1-0.1,0.5,1s-0.2,3.7,3.2,3c2.6-0.5,5.2-3,7.6-3.9c1.5,0,3.8,0.1,3.6,0.3
		c-1.9,1.7-20.8,8.9-24.1,9.5c-2.9,0.6-11.1,0.2-13.5-0.1s-8.8-1.2-10-1.4c-1.2-0.3-1.2,0.3-1.1,0.5c0.1,0.2,0.6,0.6,1.5,0.9
		c0.9,0.4,4.5,1.2,4.5,1.2s-1.4,0.1-2.4,0.3c-1.1,0.1-2.1,0.1-3,0.2c-0.9,0.1-4.2,0.9-4.8,0.8c-0.6-0.1-0.8,0.1-0.4,0.5
		c0.4,0.3,2.2,0.9,2.8,1.1c-0.4,0-0.7,0.1-1,0.1c-2.4,0.2-4.9,0.4-5.6,0.3c-0.7-0.1-0.9,0.4-0.5,1s2.7,1,3.5,1.2
		c-0.5,0.2-1.2,0.4-1.8,0.5c-1,0.2-2.2,0.4-2.8,0.6c-1.5,0.4-0.1,1.1,2.5,1s2.7,0.2,2.2,0.4c-0.6,0.2-3.5,1.4-4.2,1.6
		c-0.7,0.2-0.4,0.8,5.1,0.7s15.5-1.9,21.1-2.8c0.7-0.1,1.3-0.2,2-0.2l0,0c0,0,0,0,0.1,0c2.3-0.2,4,0,5.1,0.2c0.5,0.2,1,0.4,1.4,0.7
		c0.8,0.6-3.6,1.3-4,1.3c-0.4,0.1,0.6,0.9,2.7,1.7c2.2,0.8,6.5,0.3,9,0c2.6-0.3,2,0.1,1.8,0.1c-0.2,0.1-4.1,1.8-4.6,2.3
		c-0.6,0.4-0.2,0.6,4.7,0.5s10.9-1.3,12.1-1.5c1.3-0.1,1.5-0.2,0.8,1.3c-0.6,1.5-2.7,5.3-3.5,6.8s3.6,0.9,4.3,0.9
		c0.7-0.1-2,2.1-2.7,3.2c-0.6,1.1-0.2,0.9,2.4,0c1.9-0.7,5.7-2.7,7.6-3.8l0,0c0.1,0,0.2-0.1,0.3-0.2c0.3-0.2,0.6-0.3,0.7-0.4
		c0,0.3-0.1,1.9,0.1,3c0.1,0.6,0.6,1.4,1.1,2.2c0,0.1,0.1,0.2,0.2,0.2c0.3,0.5,0.7,1.1,0.9,1.3l0,0c1.3,1.8,3,3.7,3.5,4.3
		c0.6,0.9,0.6,0.3,0.4-0.7c-0.2-1,0.1-2,1.2-0.4c1.4,1.9,3.2,3.5,4.4,4.4c1.1,0.9,1.7,0.6,1.6-0.2c-0.1-0.8,0.3-1.5,1-0.2
		c0.8,1.3,2.5,2.7,3,3.1c0.5,0.3,0.2-1.7,0.4-2.4c0.1-0.3,0.2-0.6,0.3-0.8c1,1.3,3.5,3.9,3.9,2.7c0.3-1,0.8-2,1.1-2.5l0,0
		c0.2-0.3,0.3-0.5,0.3-0.5s0.3-0.1,0.6,0c0,0,0.1,0,0.2,0.1c0.7,0.4,1.8,1,2.7,1.6s1.1,1.6,1.2,2.3c0,0.5,0,0.9,0,1.1
		c0,0.1,0,0.2,0.1,0.3l0,0h0.1c3.1-1.5,5.1-1,6.3-0.2c0.7,0.3,1.1,0.9,1.4,1.5c0,0.1,0,0.1,0,0.1c0.4,0.8,0.5,1.6,0.4,2
		c0.3-0.4,2.5-3.6-0.2-6c0.8-0.5,1.5-0.3,2.4,1.6c0.9,2.1,0.1,3.2,0.1,3.2s2.2-0.6,2-4.1c0,0-0.2-2.5-3.5-3.3
		c-5.5-1.4-7.5-2.3-9.4-3c-0.2-0.1-0.3-0.2-0.5-0.2c-0.7-0.2-1.1-0.5-1.4-0.6c0-0.1-0.2-0.5-1-1.2c-1-1-1.5-1.9-1.9-2.6v-0.1
		c-0.2-0.3-0.4-0.5-0.6-0.8c-0.9-1.3-1.2-3.3-1.2-5.4c0-0.3-0.1-0.6-0.1-0.9c0-2.3,0.9-7.6,1.9-12.1c0.5-0.5,0.7-0.1-0.2,4.7
		c-0.4,2.4-0.3,4.8-0.2,6.5c0,1.7,0.3,2.5,0.4,2.9c0.1,0.2,0.2,0.4,0.4,0.6c1,1,6.4,4.9,7.3,5.1c0.9,0.2,0.9-0.4,1-0.7
		c0.1-0.2,0.5,0.1,1,0.7l0,0c0.2,0.3,0.5,0.5,0.7,0.8c0.8,0.9,2.8,1.4,3.1,1.4c0.1,0,0.2-0.1,0.2-0.2c0.2-0.4,0.4-1.4,0.6-1.7
		c0.2-0.4,0.5,0.2,1.1,0.6c0.6,0.4,0.9,0.2,1.2-0.2c0,0,0.1-0.1,0.1-0.2c0.2-0.4,0.9-0.6,1.4-0.7l0,0c0.5-0.3,2.2-0.2,2.8-0.1
		c0.1,0,0.1,0,0.1,0.1l0,0c0,0,0,0,0.1,0c0.3,0.1,1.2,1.1,1.2,2.2l0,0c0,0,0,0,0,0.1l1-0.6c1.2-0.5,3.1-1.1,5.1-0.6l0,0
		c0.5,0.2,0.5,0.8,0.5,1.5c0,0-0.2,1.2-0.9,1.8c0,0,2.3-0.7,3-2.5c0.4,0.2,1.1,1.3-0.3,2.7c0,0,4.1,0.1,2.7-3.5
		c-0.2-1.9-1.5-3-2.9-3.6h0.1c-1.4-0.6-3-0.8-3.7-0.7c-0.5,0.1-0.8,0.2-1,0.2c-0.5,0-5.7-1-6.2-1.2c-0.6-0.2-1.3-0.4-2.3-1.3
		c-0.9-0.9-3.5-5.6-3.8-6.9c-0.3-1.2-2.7-6.1-3.3-7.4c-0.6-1.3-4.1-5.7-4.9-6.9c-0.1-0.1-0.1-0.2-0.2-0.3c-0.7-1.2-1.8-2.6-2.1-3
		c0.2-0.5,0.4-0.8,0.4-0.8c0.5-1,2.3-3.5,3.2-5s1.4-2.8,1.9-3.3c0,0,1.5-4.2,4.9-4.8c0,0,0.7-0.3,2.3,0.1c3.2,1,5.9,2.8,5.9,2.8
		s1,0.5,1.5,0.9s1.9,1,2.4,1.5s3,5.1,3.1,5.4c0.1,0.3,0.4,0.7,0.2,1.1c-0.1,0.3-0.6,0.9-1,1s0.2,0.2,0.7,0.1c0.5-0.1,1.4-0.6,3-1.7
		c1.6-1.1,1.6-4.5,1.4-5.9c-0.2-0.9-0.8-3-0.8-3.6s1.6-1.3,0.5-5.1c-1.2-4.1-5.7-8.1-8.1-10.3c-2.3-2.2-5.7-4.6-6.5-5.2
		c-0.8-0.6-1-0.6-1.2-0.9l0.9-0.2c-0.1,0-0.3,0-0.4,0c0.2-0.4,1-1.4,1.9-2.5c2.4-2.2,6.4-5.2,11.1-7c7.8-3,3.1-7.6,9.4-11.7
		c2.2-1.2,4.5-2.5,5.4-3c1.7-0.9,11.4-6.3,12.9-6.8c1.4-0.5,2.1-0.9,0-1.1c-2.1-0.2-7.8,1.7-10.1,2.9s-5.6,3.5-5.6,3.5
		s-0.4-0.2-0.6-0.3c-0.1-0.2,0.1-0.6,0.6-1.2c0.5-0.6,6.6-6,8.9-7.7c2.3-1.7,8.6-6.9,9.9-7.9C843.6,599.5,841.5,599.3,838.5,600.1"
		/>
</g>
</svg>
