<?xml version="1.0" encoding="utf-8"?>
<!-- Generator: Adobe Illustrator 22.1.0, SVG Export Plug-In . SVG Version: 6.00 Build 0)  -->
<svg version="1.1" id="Layer_1" xmlns="http://www.w3.org/2000/svg" xmlns:xlink="http://www.w3.org/1999/xlink" x="0px" y="0px"
	 viewBox="0 0 21.2 20.2" style="enable-background:new 0 0 21.2 20.2;" xml:space="preserve">
<style type="text/css">
	.st0{fill:#FFFFFF;}
</style>
<g>
	<circle class="st0" cx="14.8" cy="16.5" r="2.1"/>
	<circle class="st0" cx="6" cy="10.4" r="2.1"/>
	<circle class="st0" cx="11.4" cy="4.2" r="2.1"/>
	<path class="st0" d="M11.6,15.9H1.4c-0.3,0-0.6,0.3-0.6,0.6c0,0.3,0.3,0.6,0.6,0.6h10.2c0-0.2-0.1-0.4-0.1-0.6
		C11.5,16.3,11.5,16.1,11.6,15.9z"/>
	<path class="st0" d="M18,17.2h1.3c0.3,0,0.6-0.3,0.6-0.6c0-0.3-0.3-0.6-0.6-0.6H18c0,0.2,0.1,0.4,0.1,0.6
		C18.1,16.7,18.1,17,18,17.2z"/>
	<path class="st0" d="M2.8,9.7H1.4C1,9.7,0.8,10,0.8,10.4C0.8,10.7,1,11,1.4,11h1.4c0-0.2-0.1-0.4-0.1-0.6C2.7,10.1,2.8,9.9,2.8,9.7
		z"/>
	<path class="st0" d="M9.3,11h10.1c0.3,0,0.6-0.3,0.6-0.6c0-0.3-0.3-0.6-0.6-0.6H9.3c0,0.2,0.1,0.4,0.1,0.6
		C9.3,10.6,9.3,10.8,9.3,11z"/>
	<path class="st0" d="M8.3,3.6H1.4C1,3.6,0.8,3.8,0.8,4.2c0,0.3,0.3,0.6,0.6,0.6h6.9c0-0.2-0.1-0.4-0.1-0.6C8.2,4,8.3,3.8,8.3,3.6z"
		/>
	<path class="st0" d="M14.7,4.8h4.6c0.3,0,0.6-0.3,0.6-0.6c0-0.3-0.3-0.6-0.6-0.6h-4.6c0,0.2,0.1,0.4,0.1,0.6
		C14.8,4.4,14.8,4.6,14.7,4.8z"/>
</g>
</svg>
