<?xml version="1.0" encoding="utf-8"?>
<!-- Generator: Adobe Illustrator 22.1.0, SVG Export Plug-In . SVG Version: 6.00 Build 0)  -->
<svg version="1.1" id="Layer_1" xmlns="http://www.w3.org/2000/svg" xmlns:xlink="http://www.w3.org/1999/xlink" x="0px" y="0px"
     viewBox="0 0 200 200" style="enable-background:new 0 0 200 200;" xml:space="preserve">
<style type="text/css">
	.st0{fill:#71A850;}
	.st1{fill:#FFC600;}
</style>
    <g>
	<path class="st0" d="M186.3,144.6c-1-0.2-3.2-0.6-6.4-0.6c-0.5-0.2-1.6-0.7-2-1.6c0,0-0.4,1.2-0.9,1.7c-1.9,0.1-4.2,0.4-6.6,1
		c-0.5-0.1-1.6-0.4-2.1-1.1c0,0-0.1,1.2-0.4,1.8c-1.6,0.5-3.2,1-5,1.8c-0.1,0-0.2,0.1-0.2,0.1c-0.4,0-1.8,0-2.5-0.7
		c0,0,0.1,1.5-0.3,2c-1.6,0.8-3.5,1.8-5.4,2.8c-0.5,0-1.7,0-2.3-0.7c0,0,0.2,1.5-0.2,2c-0.9,0.5-1.8,1-2.8,1.6l-9.3,5.4l0,0
		c-1.4,0.9-2.9,1.7-4.3,2.6c-0.6,0-1.6-0.1-2.1-0.7c0,0,0.2,1.5-0.2,2c-0.7,0.4-1.4,0.9-2.1,1.3v0l-10.9,6.5c-0.6,0-1.5-0.1-2.1-0.7
		c0,0,0.2,1.4-0.1,2c-1.7,1-3.3,1.9-4.8,2.8c-0.5,0-1.7,0-2.4-0.7c0,0,0.2,1.6-0.2,2.1c-0.7,0.4-1.5,0.8-2.2,1.2
		c-0.9,0.5-1.8,0.9-2.6,1.3c-0.6,0-1.6-0.2-2.2-0.8c0,0,0.1,1.2-0.2,1.8c-2.2,0.9-4.1,1.6-5.8,2c-0.3,0-1.8-0.2-2.4-1.1
		c0,0-0.1,1.2-0.4,1.8c-5.7,1-8.4-0.3-8.4-0.3c0.5,8.8,7.4,9.2,7.4,9.2c18.1,3.3,35.9-13.8,55.8-29.7c1.1-0.9,2.6-2.1,3.2-2.5
		c21-16.3,34.2-14,34.2-14C189.2,146.4,188.6,145,186.3,144.6"/>
        <path class="st1" d="M170.6,61c-2.8,0.8-6.9,4.2-8.2,5.4c-1.3,1.2-4.4,4.3-4.4,4.3s-0.2-0.5-0.1-0.8c0-0.4,0.4-0.9,1.5-2.2
		c1.1-1.3,6.8-7.8,7.7-8.7c0.8-0.9,4.6-4.1,5-4.8c0.3-0.8-0.2-0.6-1.3-0.4c-1,0.2-2.8,0.9-5.2,2.6c-2.4,1.7-5.4,5.4-5.4,5.4
		l-0.2,0.7c0,0-0.2-0.1-0.9,0.7c-0.7,0.8-3,3.7-3,3.7s-0.1,0-0.3-0.2c-0.1-0.2-0.1-0.8,0.1-1.1c0.2-0.3,3.1-5.3,3.7-6.2
		c0.5-0.9,3.9-6.4,4.1-6.9c0.3-0.5,1.6-2.8,2.1-3.6c0.6-0.8,0.6-1.7-0.9-1.1c-2.6,1.2-6,5.8-7.2,7.6c-1.2,1.8-3.7,6.2-3.7,6.2
		s-0.4,0.2-0.6,0.2c-0.2,0-0.4-0.8-0.2-1.5c0.2-0.6,1.8-4.6,2.4-7c0.6-2.3,2-7.1,2.1-8.1c0.1-1,0-1.5-0.6-1.2
		c-0.6,0.3-2.5,2.5-3.1,3.9c-0.6,1.4-2.6,6.7-2.9,7.5c-0.4,0.8-1.2,2.1-1.2,2.1s0.2-1.8,0.5-2.9c0.3-1.1,1.1-8.7,1.2-10.2
		c0.1-1.5-0.4-1.2-0.7-0.9c-0.3,0.3-1.9,2.7-2.4,3.7c-0.4,1-1.5,4.5-1.7,5.5c-0.2,0.9-0.6-0.7-0.6-1.3c0-0.6-0.3-4.9-0.4-5.6
		c-0.1-0.7-0.6-0.4-0.9-0.2c-0.3,0.3-1.2,1.3-1.6,1.9c-0.2,0.5-0.5,2.1-0.9,4c-0.2-1-0.4-2.2-0.6-3.1c-0.4-1.9-1-2.3-1.8-1.7
		c-0.3,0.3-0.9,0.9-1.4,1.5c-0.1,0.1-0.2,0.2-0.3,0.3c-0.6,0.6-1.1,0.9-1.3,0.4c-0.4-1.1-1.1-1-2.1-0.3c-1,0.8-2.1,2-2.8,1
		c-0.7-1-2.2,1.3-2.8,2.7c-0.6,1.5-0.6,1.5-1.6,1.1c-0.9-0.4-5.4,0.5-15.8,10c-5,4.6-7.6,8.2-9,10.7c2.9,10.3,7.9,16.4,8.3,17.2
		c0.4,0.9,1.6,2,1.3,2.5c-0.3,0.5-1.6-0.8-1.6-0.8c-7.6-6.8-12.4-20.2-14-25.1c-0.6-1.4-1-2.8-1.4-4.2c-1.8-7.3-8.9-10.8-12-13.9
		c-2.3-2.2-3.6-4.4-4.2-5.5c-1.2-3.5-2.6-7.5-3-8.9c-0.9-2.6-6-17.6-6.3-19.7c-0.3-2.1-0.8-3.2-1.5-0.3c-0.7,2.9,0.4,11.4,1.5,14.9
		c1.1,3.5,3.4,8.7,3.4,8.7s-0.3,0.6-0.6,0.7c-0.3,0.1-0.8-0.3-1.5-1.2c-0.7-0.8-6.6-10.7-8.4-14.4c-1.8-3.6-7.4-13.7-8.5-15.8
		C53.5,6.2,52.6,9,53,13.6c0.4,4.5,4.6,11.8,6,14.1c1.4,2.3,5.3,7.9,5.3,7.9s-0.8,0.1-1.3,0c-0.5-0.1-1.2-0.8-2.9-3
		C58.4,30.4,50.2,20,49,18.4c-1.1-1.5-4.9-8.2-5.9-8.9c-1-0.7-1,0.2-1,1.9c0,1.7,0.6,4.5,2.5,8.7c1.9,4.2,6.7,9.8,6.7,9.8l6.6,7.6
		c0,0,0,0.2-0.3,0.4c-0.4,0.1-1.2,0-1.6-0.4c-0.4-0.4-7.2-6.2-8.4-7.3c-1.2-1.1-8.6-7.7-9.3-8.2c-0.7-0.5-3.8-3.2-4.9-4.2
		c-1.1-1.1-2.5-1.3-1.8,1.1c1.1,4.4,7.1,10.8,9.6,13.1c2.5,2.3,8.4,7.3,8.4,7.3s0.2,0.7,0.1,1c-0.1,0.3-1.4,0.4-2.2-0.1
		c-0.9-0.4-6.5-4-9.9-5.6c-3.4-1.6-10.2-5-11.7-5.4c-1.5-0.4-2.3-0.4-2,0.6c0.3,1,3.1,4.5,5,5.8c1.9,1.3,9.4,5.7,10.5,6.5
		c1.1,0.7,2.8,2.5,2.8,2.5S39.6,43.8,38,43c-1.6-0.8-12.9-4.1-15.1-4.6c-2.2-0.6-1.9,0.3-1.5,0.8c0.4,0.5,3.6,3.7,5,4.6
		c1.4,0.9,6.4,3.5,7.8,4.1c1.4,0.6-1.2,0.7-2.1,0.6c-1-0.1-7.4-0.9-8.5-0.8c-1.1,0-0.8,0.8-0.5,1.4c0.3,0.6,1.6,2.2,2.4,3
		c0.8,0.7,5.4,2.2,9.8,3.9c-2.6-0.3-7.7,0.5-8.5,0.8c-0.8,0.3-2.1,0.9-2.2,1.4c-0.1,0.5,1.2,2.2,1.7,2.7c0.5,0.5,2.8,2.5,2.8,2.5
		s-1.4,0.4-2.4,0.7c-1,0.3-0.9,1.3-0.2,2.1c0.7,1,3.1,3.5,3.1,3.5s-1.3,0.5-1.6,0.7c-3.8,1.6,6.1,7,5.6,7.9C33,79.5,33,83,36.1,90.3
		c3.1,7.3,8.5,16.1,17.2,23.7c0,0,0.4,0.5,1,0.3c0.6-0.2,1.5-0.2,1.4,1.4c-0.1,1.6,1.4,4.6,4.7,5.7c0.2,0.1,0.4,0.1,0.6,0.2
		c0,0,0.1,0.1,0.1,0.1c0.2,0.1,0.4,0.1,0.5,0c3.1,0.4,6.7-1,7.3,0.4c0.6,1.6-0.7,3.3,1.6,3.5c2.4,0.2,6.3-1.4,6.3-1.4
		s0.9-0.1,0.4,0.9c-0.4,1-0.2,3.4,2.9,2.7c2.4-0.5,4.7-2.8,6.9-3.5c1.4,0,3.5,0.1,3.3,0.3c-1.7,1.5-19,8.1-21.9,8.7
		c-2.6,0.5-10.1,0.2-12.3-0.1c-2.2-0.2-8-1.1-9.1-1.3c-1.1-0.2-1.1,0.2-1,0.4c0.1,0.2,0.6,0.5,1.4,0.9c0.8,0.3,4.1,1.1,4.1,1.1
		s-1.2,0.1-2.2,0.3c-1,0.1-1.9,0.1-2.7,0.2c-0.8,0.1-3.8,0.8-4.4,0.7c-0.5-0.1-0.8,0.1-0.3,0.5c0.3,0.3,2,0.8,2.6,1
		c-0.3,0-0.7,0.1-1,0.1c-2.2,0.2-4.4,0.4-5.1,0.3c-0.6-0.1-0.8,0.4-0.4,1c0.3,0.5,2.4,0.9,3.2,1.1c-0.4,0.1-1.1,0.3-1.6,0.5
		c-0.9,0.2-2,0.4-2.6,0.5c-1.4,0.4-0.1,1,2.2,0.9c2.3-0.1,2.5,0.2,2,0.4c-0.5,0.1-3.2,1.3-3.9,1.4c-0.6,0.1-0.4,0.7,4.6,0.7
		c5-0.1,14.1-1.7,19.2-2.5c0.6-0.1,1.2-0.2,1.8-0.2c0,0,0,0,0,0c0,0,0,0,0.1,0c2.1-0.2,3.6,0,4.7,0.2c0.4,0.1,0.9,0.3,1.3,0.6
		c0.7,0.5-3.3,1.2-3.6,1.2c-0.4,0.1,0.5,0.8,2.5,1.6c2,0.7,5.9,0.2,8.2,0c2.4-0.3,1.8,0.1,1.6,0.1c-0.2,0.1-3.7,1.7-4.2,2.1
		c-0.5,0.4-0.2,0.5,4.3,0.4c4.5-0.1,9.9-1.2,11.1-1.4c1.1-0.1,1.3-0.2,0.8,1.2c-0.6,1.3-2.4,4.8-3.2,6.2c-0.8,1.4,3.3,0.8,3.9,0.8
		c0.6-0.1-1.9,1.9-2.4,2.9c-0.6,1-0.2,0.8,2.2,0c1.7-0.6,5.2-2.5,7-3.4c0,0,0,0,0,0c0.1,0,0.2-0.1,0.2-0.1c0.3-0.2,0.5-0.3,0.7-0.4
		c0,0.3-0.1,1.7,0.1,2.7c0.1,0.5,0.6,1.3,1,2c0,0.1,0.1,0.1,0.1,0.2c0.3,0.5,0.6,1,0.8,1.2c0,0,0,0,0,0c1.2,1.6,2.8,3.4,3.1,3.9
		c0.6,0.8,0.5,0.3,0.3-0.6c-0.2-0.9,0.1-1.8,1.1-0.4c1.2,1.7,3,3.2,4,4c1,0.8,1.6,0.6,1.5-0.2c-0.1-0.8,0.2-1.3,0.9-0.2
		c0.7,1.2,2.3,2.5,2.8,2.8c0.5,0.3,0.2-1.5,0.4-2.2c0.1-0.3,0.2-0.5,0.3-0.7c0.9,1.2,3.2,3.5,3.5,2.4c0.3-0.9,0.7-1.8,1-2.3v0
		c0.1-0.3,0.2-0.5,0.2-0.5s0.3-0.1,0.6,0c0,0,0.1,0,0.2,0.1c0.6,0.3,1.6,0.9,2.4,1.5c0.8,0.6,1,1.4,1.1,2.1c0,0.4,0,0.8,0,1
		c0,0.1,0,0.2,0.1,0.3c0,0,0,0,0,0l0,0c2.9-1.3,4.6-0.9,5.7-0.2c0.6,0.3,1,0.8,1.3,1.4c0,0,0,0.1,0,0.1c0.3,0.7,0.4,1.4,0.4,1.8
		c0.3-0.4,2.2-3.3-0.2-5.5c0.7-0.4,1.4-0.3,2.2,1.4c0.8,1.9,0.1,2.9,0.1,2.9s2-0.5,1.9-3.7c0,0-0.1-2.3-3.2-3.1
		c-5-1.2-6.8-2.1-8.5-2.8c-0.1-0.1-0.3-0.2-0.4-0.2c-0.6-0.2-1-0.4-1.3-0.6c0-0.1-0.2-0.4-0.9-1.1c-1-0.9-1.4-1.7-1.7-2.4
		c0,0,0-0.1,0-0.1c-0.2-0.2-0.3-0.5-0.5-0.7c-0.8-1.2-1.1-3-1.1-4.9c0-0.3-0.1-0.5-0.1-0.8c0-2.1,0.9-6.9,1.7-11
		c0.5-0.4,0.6-0.1-0.2,4.3c-0.4,2.2-0.3,4.4-0.1,6c0,1.5,0.2,2.3,0.3,2.7c0.1,0.2,0.2,0.4,0.3,0.5c0.9,0.9,5.8,4.4,6.6,4.6
		c0.8,0.2,0.8-0.4,0.9-0.6c0-0.2,0.4,0.1,0.9,0.6c0,0,0,0,0,0c0.2,0.2,0.4,0.5,0.7,0.8c0.7,0.9,2.5,1.2,2.9,1.3
		c0.1,0,0.2-0.1,0.2-0.2c0.2-0.4,0.3-1.2,0.5-1.6c0.2-0.4,0.4,0.2,1,0.5c0.5,0.3,0.8,0.2,1.1-0.2c0,0,0.1-0.1,0.1-0.2
		c0.2-0.3,0.9-0.5,1.3-0.6h0c0.4-0.3,2-0.2,2.5-0.1c0.1,0,0.1,0,0.1,0.1h0c0,0,0,0,0.1,0c0.2,0.1,1.1,1,1.1,2c0,0,0,0,0,0
		c0,0,0,0,0,0l0.9-0.5c1.1-0.5,2.8-1,4.6-0.5v0c0.5,0.2,0.5,0.7,0.4,1.4c0,0-0.2,1.1-0.8,1.7c0,0,2.1-0.6,2.7-2.3
		c0.4,0.2,1,1.2-0.3,2.5c0,0,3.7,0.1,2.4-3.2c-0.2-1.7-1.4-2.7-2.6-3.3l0.1,0c-1.3-0.6-2.7-0.7-3.4-0.6c-0.4,0.1-0.8,0.2-0.9,0.2
		c-0.4,0-5.2-0.9-5.7-1.1c-0.5-0.2-1.2-0.4-2.1-1.2c-0.8-0.8-3.2-5.1-3.5-6.3c-0.3-1.1-2.4-5.5-3-6.7c-0.6-1.2-3.8-5.2-4.5-6.2
		c-0.1-0.1-0.1-0.2-0.2-0.2c-0.7-1.1-1.6-2.3-1.9-2.7c0.2-0.5,0.3-0.7,0.4-0.7c0.4-0.9,2.1-3.2,2.9-4.6c0.8-1.4,1.3-2.5,1.7-3
		c0,0,1.3-3.9,4.4-4.4c0,0,0.7-0.3,2.1,0.1c2.9,0.9,5.4,2.5,5.4,2.5s0.9,0.4,1.4,0.8c0.5,0.4,1.7,0.9,2.1,1.3
		c0.5,0.5,2.7,4.7,2.8,4.9c0.1,0.2,0.4,0.6,0.1,1c-0.1,0.3-0.6,0.8-0.9,0.9c-0.3,0.1,0.2,0.2,0.6,0.1c0.5-0.1,1.3-0.6,2.8-1.6
		c1.5-1,1.4-4.1,1.2-5.4c-0.1-0.8-0.8-2.8-0.8-3.3c0-0.5,1.4-1.2,0.5-4.6c-1.1-3.7-5.2-7.3-7.3-9.4c-2.1-2-5.2-4.2-6-4.7
		c-0.7-0.5-0.9-0.6-1.1-0.9l0.8-0.2c-0.1,0-0.3,0-0.4,0c0.2-0.4,0.9-1.3,1.8-2.3c2.2-2,5.8-4.7,10.1-6.4c7.1-2.8,2.9-6.9,8.6-10.7
		c2-1.1,4.1-2.3,4.9-2.7c1.6-0.9,10.4-5.8,11.7-6.2c1.3-0.5,1.9-0.9,0-1c-1.9-0.1-7.1,1.5-9.2,2.6c-2.1,1.1-5.1,3.2-5.1,3.2
		s-0.4-0.1-0.5-0.3c-0.1-0.2,0.1-0.6,0.6-1.1c0.4-0.5,6-5.5,8.1-7c2.1-1.6,7.8-6.3,9-7.2C175.2,60.5,173.4,60.2,170.6,61"/>
</g>
</svg>
