<?xml version="1.0" encoding="utf-8"?>
<!-- Generator: Adobe Illustrator 22.1.0, SVG Export Plug-In . SVG Version: 6.00 Build 0)  -->
<svg version="1.1" id="Layer_1" xmlns="http://www.w3.org/2000/svg" xmlns:xlink="http://www.w3.org/1999/xlink" x="0px" y="0px"
	 viewBox="0 0 91 110" style="enable-background:new 0 0 91 110;" xml:space="preserve">
<style type="text/css">
	.st0{fill:none;stroke:#FFFFFF;stroke-width:2.6825;stroke-miterlimit:10;}
	.st1{fill:none;stroke:#FFFFFF;stroke-width:2.6825;stroke-linejoin:round;stroke-miterlimit:10;}
</style>
<g>
	<g>
		<line class="st0" x1="37.5" y1="69.1" x2="37.5" y2="26.2"/>
		<polyline class="st1" points="42.8,69.1 42.8,24.8 37.5,12.7 32.1,24.8 32.1,69.1 		"/>
		<line class="st1" x1="32.1" y1="26.2" x2="42.8" y2="26.2"/>
	</g>
	<g>
		<g>
			<line class="st0" x1="54.9" y1="19.4" x2="52.2" y2="19.4"/>
			<line class="st0" x1="52.2" y1="26.2" x2="48.2" y2="26.2"/>
			<line class="st0" x1="52.2" y1="31.5" x2="48.2" y2="31.5"/>
			<line class="st0" x1="52.2" y1="36.9" x2="48.2" y2="36.9"/>
			<line class="st0" x1="52.2" y1="42.2" x2="48.2" y2="42.2"/>
			<line class="st0" x1="52.2" y1="47.6" x2="48.2" y2="47.6"/>
			<line class="st0" x1="52.2" y1="53" x2="48.2" y2="53"/>
			<line class="st0" x1="52.2" y1="58.3" x2="48.2" y2="58.3"/>
			<line class="st0" x1="52.2" y1="63.7" x2="48.2" y2="63.7"/>
		</g>
		<polyline class="st0" points="58.9,69.1 58.9,12.7 48.2,12.7 48.2,69.1 		"/>
	</g>
	<g>
		<path class="st0" d="M10.6,74.4h69.7v8c0,0.7-0.3,1.4-0.8,1.9c-0.5,0.5-1.2,0.8-1.9,0.8H13.3c-0.7,0-1.4-0.3-1.9-0.8
			c-0.5-0.5-0.8-1.2-0.8-1.9V74.4z"/>
		<path class="st0" d="M62.9,26.2h14.8c0.7,0,1.4,0.3,1.9,0.8c0.5,0.5,0.8,1.2,0.8,1.9v45.6H10.6V28.8c0-0.7,0.3-1.4,0.8-1.9
			c0.5-0.5,1.2-0.8,1.9-0.8h14.8"/>
		<path class="st0" d="M60.3,97.2c0-0.7-0.3-1.4-0.8-1.9c-0.5-0.5-1.2-0.8-1.9-0.8H33.4c-0.7,0-1.4,0.3-1.9,0.8
			c-0.5,0.5-0.8,1.2-0.8,1.9"/>
		<polygon class="st0" points="53.5,85.2 37.5,85.2 36.1,94.6 54.9,94.6 		"/>
		<line class="st0" x1="41.5" y1="79.8" x2="49.5" y2="79.8"/>
		<polyline class="st0" points="28.1,31.5 16,31.5 16,69.1 75,69.1 75,31.5 62.9,31.5 		"/>
	</g>
</g>
</svg>
