<?xml version="1.0" encoding="utf-8"?>
<!-- Generator: Adobe Illustrator 22.1.0, SVG Export Plug-In . SVG Version: 6.00 Build 0)  -->
<svg version="1.1" id="Layer_1" xmlns="http://www.w3.org/2000/svg" xmlns:xlink="http://www.w3.org/1999/xlink" x="0px" y="0px"
	 viewBox="0 0 96 96" style="enable-background:new 0 0 96 96;" xml:space="preserve">
<style type="text/css">
	.st0{fill:none;stroke:#403E3E;stroke-width:2.6825;stroke-miterlimit:10;}
	.st1{fill:none;stroke:#403E3E;stroke-width:2.6825;stroke-linejoin:round;stroke-miterlimit:10;}
	.st2{fill:none;stroke:#F96232;stroke-width:2.6825;stroke-miterlimit:10;}
	.st3{fill:none;stroke:#43D3E8;stroke-width:2.6825;stroke-miterlimit:10;}
</style>
<g>
	<g>
		<line class="st0" x1="42.1" y1="61.4" x2="42.1" y2="18.5"/>
		<polyline class="st1" points="47.5,61.4 47.5,17.2 42.1,5.1 36.8,17.2 36.8,61.4 		"/>
		<line class="st1" x1="36.8" y1="18.5" x2="47.5" y2="18.5"/>
	</g>
	<g>
		<g>
			<line class="st2" x1="59.6" y1="11.8" x2="56.9" y2="11.8"/>
			<line class="st2" x1="56.9" y1="18.5" x2="52.9" y2="18.5"/>
			<line class="st2" x1="56.9" y1="23.9" x2="52.9" y2="23.9"/>
			<line class="st2" x1="56.9" y1="29.2" x2="52.9" y2="29.2"/>
			<line class="st2" x1="56.9" y1="34.6" x2="52.9" y2="34.6"/>
			<line class="st2" x1="56.9" y1="40" x2="52.9" y2="40"/>
			<line class="st2" x1="56.9" y1="45.3" x2="52.9" y2="45.3"/>
			<line class="st2" x1="56.9" y1="50.7" x2="52.9" y2="50.7"/>
			<line class="st2" x1="56.9" y1="56.1" x2="52.9" y2="56.1"/>
		</g>
		<polyline class="st2" points="63.6,61.4 63.6,5.1 52.9,5.1 52.9,61.4 		"/>
	</g>
	<g>
		<path class="st0" d="M15.3,66.8h69.7v8c0,0.7-0.3,1.4-0.8,1.9c-0.5,0.5-1.2,0.8-1.9,0.8H18c-0.7,0-1.4-0.3-1.9-0.8
			c-0.5-0.5-0.8-1.2-0.8-1.9V66.8z"/>
		<path class="st0" d="M67.6,18.5h14.8c0.7,0,1.4,0.3,1.9,0.8c0.5,0.5,0.8,1.2,0.8,1.9v45.6H15.3V21.2c0-0.7,0.3-1.4,0.8-1.9
			c0.5-0.5,1.2-0.8,1.9-0.8h14.8"/>
		<path class="st0" d="M64.9,89.6c0-0.7-0.3-1.4-0.8-1.9c-0.5-0.5-1.2-0.8-1.9-0.8H38.1c-0.7,0-1.4,0.3-1.9,0.8
			c-0.5,0.5-0.8,1.2-0.8,1.9"/>
		<polygon class="st0" points="58.2,77.5 42.1,77.5 40.8,86.9 59.6,86.9 		"/>
		<line class="st0" x1="46.2" y1="72.1" x2="54.2" y2="72.1"/>
		<polyline class="st3" points="32.8,23.9 20.7,23.9 20.7,61.4 79.7,61.4 79.7,23.9 67.6,23.9 		"/>
	</g>
</g>
</svg>
