<?xml version="1.0" encoding="utf-8"?>
<!-- Generator: Adobe Illustrator 22.1.0, SVG Export Plug-In . SVG Version: 6.00 Build 0)  -->
<svg version="1.1" id="Layer_1" xmlns="http://www.w3.org/2000/svg" xmlns:xlink="http://www.w3.org/1999/xlink" x="0px" y="0px"
	 viewBox="0 0 80.3 76.4" style="enable-background:new 0 0 80.3 76.4;" xml:space="preserve">
<style type="text/css">
	.st0{fill:#FF9100;}
	.st1{fill:#B7BEC0;}
	.st2{fill:#282D33;}
</style>
<g>
	<polygon class="st0" points="34.3,29.6 15.6,48.4 53.1,48.4 	"/>
	<polygon class="st1" points="49.4,35.2 37.6,47 61.3,47 	"/>
	<g>
		<polygon class="st2" points="61.3,48.5 19.8,48.5 34.7,33.6 39.6,38.6 53.4,24.7 62.8,34.2 61.5,35.5 53.4,27.4 39.6,41.2 
			34.7,36.3 24.3,46.6 61.3,46.6 		"/>
	</g>
</g>
</svg>
