<?xml version="1.0" encoding="utf-8"?>
<!-- Generator: Adobe Illustrator 22.1.0, SVG Export Plug-In . SVG Version: 6.00 Build 0)  -->
<svg version="1.1" id="Layer_1" xmlns="http://www.w3.org/2000/svg" xmlns:xlink="http://www.w3.org/1999/xlink" x="0px" y="0px"
	 viewBox="0 0 35 35" style="enable-background:new 0 0 35 35;" xml:space="preserve">
<style type="text/css">
	.st0{fill-rule:evenodd;clip-rule:evenodd;fill:#43D2E8;}
</style>
<g>
	<path class="st0" d="M5.3,26.2c-0.2,0.2-0.2,0.4-0.2,0.6c0,0.2,0.1,0.4,0.2,0.6l2.2,2.2c0.2,0.2,0.4,0.2,0.6,0.2
		c0.2,0,0.4-0.1,0.6-0.2l8.7-8.8l-3.4-3.4L5.3,26.2z"/>
	<path class="st0" d="M29.5,11.3l-2.9-2.9l-2.9-2.9c-0.6-0.6-1.5-0.6-2.1,0l-5.5,4c-3.2,2.3-1.3,5.6-0.6,6.4l3.5,3.6
		c0.6,0.6,4,2.9,6.5-0.5l4-5.6C30.1,12.8,30.1,11.9,29.5,11.3z M26.1,12l-0.6,0.6c-0.3,0.3-0.9,0.3-1.3-0.1l-1.9-1.8
		c-0.4-0.4-0.4-1-0.1-1.3l0.6-0.6c0.3-0.3,0.9-0.3,1.3,0.1l1.9,1.8C26.4,11.1,26.5,11.7,26.1,12z"/>
</g>
</svg>
