<?xml version="1.0" encoding="utf-8"?>
<!-- Generator: Adobe Illustrator 22.1.0, SVG Export Plug-In . SVG Version: 6.00 Build 0)  -->
<svg version="1.1" id="Layer_2" xmlns="http://www.w3.org/2000/svg" xmlns:xlink="http://www.w3.org/1999/xlink" x="0px" y="0px"
	 viewBox="0 0 162 162" style="enable-background:new 0 0 162 162;" xml:space="preserve">
<style type="text/css">
	.st0{fill:#71A850;stroke:#F6F6F6;stroke-width:6.9823;stroke-miterlimit:10;}
	.st1{fill:#FFFFFF;}
</style>
<circle class="st0" cx="79" cy="83.6" r="69.8"/>
<g>
	<path class="st1" d="M114.2,97.9l1.9-8.3c0.7-2.9-0.1-6-1.9-8.2l-5.5,23.2C111.4,103.4,113.5,101,114.2,97.9z"/>
	<path class="st1" d="M53.2,105.5H56c1.2,0,2.3-0.3,3-1.3l2.8-4.2c0.7-1,0.9-2.3,0.7-3.5l-2.9-14.6c-0.3-1.6-1.4-2.9-2.9-3.4
		l-1.9-0.7c-0.3-4.2-0.2-10.7,2.4-15.3c0.5,0.2,0.9,0.3,1.4,0.3c0.9,0,1.7-0.3,2.4-1c1.8-1.7,6.4-4.4,17.2-4.4h1.5
		c10.9,0,15.5,2.8,17.2,4.4c1.1,1,2.6,1.2,3.8,0.7c2.6,4.6,2.7,11.2,2.4,15.3l-1.9,0.7c-1.5,0.6-2.6,1.8-2.9,3.4l-2.9,14.6
		c-0.2,1.2,0,2.4,0.7,3.5l1.9,2.9l-1.3,5.9c-0.6,1.9-2.2,3.6-4.1,4.7c0,0-2.2,0.9-5.7,1.6c-0.9-1.8-2.8-3-4.9-3
		c-3.1,0-5.6,2.5-5.6,5.6c0,3.1,2.5,5.6,5.6,5.6c1.9,0,3.5-0.9,4.5-2.4l0.6-0.1c4.8-0.8,7.8-2.1,7.9-2.1c3.5-1.8,6-4.7,7.2-8.3
		l1.1-4.8h1.4c0.5,0,0.9,0,1.3-0.1l6.1-25.8c-0.1-0.1-0.1-0.1-0.2-0.2l-3.1-2c0.3-5-0.1-13.1-4-18.9c1-1.4,0.9-3.4-0.5-4.6
		c-3.9-3.6-12.3-9.8-24.7-9.8h-1.5c-12.4,0-20.8,6.1-24.7,9.8c-0.7,0.6-1.1,1.5-1.1,2.5c0,0.8,0.2,1.5,0.7,2.2
		c-4,5.8-4.3,13.9-4,18.9l-3.1,2c-0.1,0-0.1,0.1-0.2,0.1l6.1,25.8C52.3,105.4,52.8,105.5,53.2,105.5z"/>
	<path class="st1" d="M43.8,81.4c-1.8,2.3-2.6,5.3-1.9,8.3l1.9,8.3c0.7,3.1,2.8,5.6,5.6,6.8L43.8,81.4z"/>
</g>
</svg>
