<?xml version="1.0" encoding="utf-8"?>
<!-- Generator: Adobe Illustrator 22.1.0, SVG Export Plug-In . SVG Version: 6.00 Build 0)  -->
<svg version="1.1" id="Layer_1" xmlns="http://www.w3.org/2000/svg" xmlns:xlink="http://www.w3.org/1999/xlink" x="0px" y="0px"
	 viewBox="0 0 80.3 76.4" style="enable-background:new 0 0 80.3 76.4;" xml:space="preserve">
<style type="text/css">
	.st0{fill:none;stroke:#000000;stroke-width:1.5;stroke-linejoin:round;stroke-miterlimit:22.9256;}
	.st1{fill:#FF9100;stroke:#000000;stroke-width:1.5;stroke-linejoin:round;stroke-miterlimit:22.9256;}
</style>
<g>
	<path class="st0" d="M26.4,39.5c4.3,0,7.7,3.5,7.7,7.7c0,4.3-3.5,7.7-7.7,7.7c-4.3,0-7.7-3.5-7.7-7.7C18.6,43,22.1,39.5,26.4,39.5
		L26.4,39.5z"/>
	<path class="st0" d="M51.7,39.5c4.3,0,7.7,3.5,7.7,7.7c0,4.3-3.5,7.7-7.7,7.7c-4.3,0-7.7-3.5-7.7-7.7S47.4,39.5,51.7,39.5
		L51.7,39.5z"/>
	<line class="st0" x1="32.3" y1="36.1" x2="36.6" y2="46.5"/>
	<polyline class="st0" points="36.2,49.6 26.4,47.2 33.2,38.5 35.7,38.2 	"/>
	<polyline class="st0" points="41.8,37.5 46.2,37 41.2,44.9 39.8,47.1 	"/>
	<polyline class="st0" points="45.5,34.3 45.8,35.8 51.7,47.2 	"/>
	<path class="st1" d="M36.2,33.5l4.8,3.2c1,0.7,1.1,1.2,0.9,2.2l-2.8,11c-0.3,1.3-3.3,0.4-3-0.7l1.9-9.5l-6.5-4.1
		c-1-0.9-0.9-2.6-0.4-3.9c1.1-2.6,4.8-7.4,7.6-7c1.2,0.2,2.5,0.6,2.9,1.1l3.4,5l4.1,2.9c0.9,0.7,0.1,3-2.1,1.6L43.3,33l-3.7-3.3
		l-3.3,3L36.2,33.5L36.2,33.5z"/>
	<path class="st0" d="M45.9,20.4c0-0.4-0.1-0.7-0.2-1c-0.7-1.7-4.9-2.3-5.4,0.2c-0.1,0.7-0.2,2.5,0.1,3.2c0.3,0.8,1.2,1.5,2.1,1.7
		c1.2,0.3,2.3-0.1,2.8-1.2C45.6,22.5,45.9,21.1,45.9,20.4z"/>
</g>
</svg>
