<?xml version="1.0" encoding="utf-8"?>
<!-- Generator: Adobe Illustrator 22.1.0, SVG Export Plug-In . SVG Version: 6.00 Build 0)  -->
<svg version="1.1" id="Layer_1" xmlns="http://www.w3.org/2000/svg" xmlns:xlink="http://www.w3.org/1999/xlink" x="0px" y="0px"
	 viewBox="0 0 19.8 14.8" style="enable-background:new 0 0 19.8 14.8;" xml:space="preserve">
<style type="text/css">
	.st0{fill:none;stroke:#F7941D;stroke-width:0.3025;stroke-miterlimit:10;}
	.st1{fill:#F7941D;}
</style>
<path class="st0" d="M16.3,13.4H3.5c-1.1,0-2.1-0.9-2.1-2.1v-8c0-1.1,0.9-2.1,2.1-2.1h12.8c1.1,0,2.1,0.9,2.1,2.1v8
	C18.4,12.4,17.4,13.4,16.3,13.4z"/>
<g>
	<path class="st1" d="M10.6,7.4c0-0.3-0.3-0.6-0.6-0.6C9.6,6.7,9.3,7,9.3,7.4C9.3,7.7,9.6,8,9.9,8C10.3,8,10.6,7.7,10.6,7.4z"/>
	<g>
		<path class="st1" d="M9.9,5.9c0.3,0,0.6,0.1,0.9,0.3H12h1.1V5.7c0-0.9-0.7-1.6-1.6-1.6H8.3c-0.9,0-1.6,0.7-1.6,1.6v0.4H9
			C9.3,6,9.6,5.9,9.9,5.9z M11.2,5.1c0-0.1,0.1-0.2,0.2-0.2H12c0.1,0,0.2,0.1,0.2,0.2v0.5c0,0.1-0.1,0.2-0.2,0.2h-0.6
			c-0.1,0-0.2-0.1-0.2-0.2V5.1z"/>
		<path class="st1" d="M11.4,7.4c0,0.8-0.7,1.5-1.5,1.5c-0.8,0-1.5-0.7-1.5-1.5c0-0.2,0.1-0.4,0.1-0.6H6.7v2.2
			c0,0.9,0.7,1.6,1.6,1.6h3.2c0.9,0,1.6-0.7,1.6-1.6V6.7h-1.8C11.4,6.9,11.4,7.1,11.4,7.4z"/>
	</g>
</g>
</svg>
