<?xml version="1.0" encoding="utf-8"?>
<!-- Generator: Adobe Illustrator 22.1.0, SVG Export Plug-In . SVG Version: 6.00 Build 0)  -->
<svg version="1.1" id="Layer_1" xmlns="http://www.w3.org/2000/svg" xmlns:xlink="http://www.w3.org/1999/xlink" x="0px" y="0px"
	 viewBox="0 0 19.8 14.8" style="enable-background:new 0 0 19.8 14.8;" xml:space="preserve">
<style type="text/css">
	.st0{fill:#F7941D;}
	.st1{opacity:0.5;}
	.st2{fill:none;stroke:#F7941D;stroke-width:0.3025;stroke-miterlimit:10;}
</style>
<g>
	<g id="Facebook_2_">
		<g>
			<path class="st0" d="M9,5.3c0,0.2,0,0.9,0,0.9H8.3v1.1H9v3.1h1.4V7.3h0.9c0,0,0.1-0.5,0.1-1.1c-0.1,0-1.1,0-1.1,0s0-0.7,0-0.8
				s0.2-0.3,0.3-0.3s0.5,0,0.8,0c0-0.2,0-0.7,0-1.2c-0.4,0-0.8,0-1,0C9,4,9,5.1,9,5.3z"/>
		</g>
		<g class="st1">
			<path class="st0" d="M9,5.3c0,0.2,0,0.9,0,0.9H8.3v1.1H9v3.1h1.4V7.3h0.9c0,0,0.1-0.5,0.1-1.1c-0.1,0-1.1,0-1.1,0s0-0.7,0-0.8
				s0.2-0.3,0.3-0.3s0.5,0,0.8,0c0-0.2,0-0.7,0-1.2c-0.4,0-0.8,0-1,0C9,4,9,5.1,9,5.3z"/>
		</g>
	</g>
	<path class="st2" d="M16.3,13.2H3.5c-1.1,0-2.1-0.9-2.1-2.1v-8C1.4,2,2.3,1,3.5,1h12.8c1.1,0,2.1,0.9,2.1,2.1v8
		C18.4,12.3,17.4,13.2,16.3,13.2z"/>
</g>
</svg>
